"Resource/HudLayout.res"
{
	//###########################//
	//    FOG'S CROSSHAIRS V3    //
	//    	 (C) FOG 2014        //
	// QUESTIONS? README IN MAIN //
	//    PICK YOUR CROSSHAIR    //
	//  WITH THE CROSSHAIRS PNG	 //
	//  IN YOUR ROOT HUD FOLDER  //
	//###########################//
	
	"FogCrosshair"
	{
		"controlName"	"CExLabel"
		"fieldName"	 	"FogCrosshair"
		"visible"		"0"					//Change this to "1" to enable your crosshair
		"enabled"		"1"
		"zpos"			"2"

		"xpos"			"c-100"
		"ypos"			"c-98"
		"wide"			"200"
		"tall"			"200"

		//"font"		"KonrWingsOutline24"

		"font"			"Crosshairs32"
		"labelText"		"9"                //Change this to whatever letter is under the xhair you want
		"textAlignment"	"center"	
		
		"fgcolor"		"255 255 255 255"
	}
	
	//fighter pilot crosshair, enable all of then together for best results (16x9 resolution)
	
	"16x9Crosshair_vertical1"
	{
		"ControlName"		"ImagePanel"
		"fieldName"		"VerticalLine"
		"xpos"			"427"
		"xpos_lodef"	"279"
		"xpos_hidef"	"309"
		"ypos"			"75"
		"zpos"			"-5"
		"wide"			"1"
		"tall"			"154"
		"tall_lodef"	"206"
		"tall_hidef"	"212"
		"autoResize"	"0"
		"pinCorner"		"0"
		"visible"		"0"
		"enabled"		"0"
		"fillcolor"		"255 255 255 255"
		"alpha" "50"
	}

	"16x9Crosshair_horizontal1"
	{
		"ControlName"		"ImagePanel"
		"fieldName"		"VerticalLine"
		"xpos"			"40"
		"xpos_lodef"	"279"
		"xpos_hidef"	"309"
		"ypos"			"240"
		"zpos"			"-5"
		"wide"			"374"
		"tall"			"1"
		"tall_lodef"	"206"
		"tall_hidef"	"212"
		"autoResize"	"0"
		"pinCorner"		"0"
		"visible"		"0"
		"enabled"		"0"
		"fillcolor"		"255 255 255 255"
		"alpha" "50"
	}
	
	"16x9Crosshair_horizontal2"
	{
		"ControlName"		"ImagePanel"
		"fieldName"		"VerticalLine"
		"xpos"			"439"
		"xpos_lodef"	"279"
		"xpos_hidef"	"309"
		"ypos"			"240"
		"zpos"			"-5"
		"wide"			"374"
		"tall"			"1"
		"tall_lodef"	"206"
		"tall_hidef"	"212"
		"autoResize"	"0"
		"pinCorner"		"0"
		"visible"		"0"
		"enabled"		"0"
		"fillcolor"		"255 255 255 255"
		"alpha" "50"
	}

	"16x9dark_top"
	{
		"ControlName"		"ImagePanel"
		"fieldName"		"VerticalLine"
		"xpos"			"426"
		"xpos_lodef"	"278"
		"xpos_hidef"	"308"
		"ypos"			"190"
		"zpos"			"-5"
		"wide"			""
		"tall"			"38"
		"tall_lodef"	"206"
		"tall_hidef"	"212"
		"autoResize"	"0"
		"pinCorner"		"0"
		"visible"		"0"
		"enabled"		"0"
		"fillcolor"		"255 255 255 255"
		"alpha" "100"
	}
	"16x9dark_bottom"
	{
		"ControlName"		"ImagePanel"
		"fieldName"		"VerticalLine"
		"xpos"			"427"
		"xpos_lodef"	"279"
		"xpos_hidef"	"309"
		"ypos"			"252"
		"zpos"			"-5"
		"wide"			"1"
		"tall"			"38"
		"tall_lodef"	"206"
		"tall_hidef"	"212"
		"autoResize"	"0"
		"pinCorner"		"0"
		"visible"		"0"
		"enabled"		"0"
		"fillcolor"		"255 255 255 255"
		"alpha" "150"
	}
	"16x9dark_left"
	{
		"ControlName"		"ImagePanel"
		"fieldName"		"VerticalLine"
		"xpos"			"365"
		"xpos_lodef"	"279"
		"xpos_hidef"	"309"
		"ypos"			"240"
		"zpos"			"-5"
		"wide"			"50"
		"tall"			"1"
		"tall_lodef"	"206"
		"tall_hidef"	"212"
		"autoResize"	"0"
		"pinCorner"		"0"
		"visible"		"0"
		"enabled"		"0"
		"fillcolor"		"255 255 255 255"
		"alpha" "100"
	}
	

	"16x9dark_right"
	{
		"ControlName"		"ImagePanel"
		"fieldName"		"VerticalLine"
		"xpos"			"439"
		"xpos_lodef"	"279"
		"xpos_hidef"	"309"
		"ypos"			"240"
		"zpos"			"-5"
		"wide"			"50"
		"tall"			"1"
		"tall_lodef"	"206"
		"tall_hidef"	"212"
		"autoResize"	"0"
		"pinCorner"		"0"
		"visible"		"0"
		"enabled"		"0"
		"fillcolor"		"255 255 255 255"
		"alpha" "100"
	}
	
	//end fighter pilot crosshair (16x9)
	
	//fighter pilot crosshair, enable all of then together for best results (16x10 resolution)
	
	"16x10Crosshair_vertical1"
	{
		"ControlName"		"ImagePanel"
		"fieldName"		"VerticalLine"
		"xpos"			"384"
		"xpos_lodef"	"279"
		"xpos_hidef"	"309"
		"ypos"			"55"
		"zpos"			"-5"
		"wide"			"1"
		"tall"			"170"
		"tall_lodef"	"206"
		"tall_hidef"	"212"
		"autoResize"	"0"
		"pinCorner"		"0"
		"visible"		"0"
		"enabled"		"0"
		"fillcolor"		"255 255 255 255"
		"alpha" "50"
	}

	"16x10Crosshair_horizontal1"
	{
		"ControlName"		"ImagePanel"
		"fieldName"		"VerticalLine"
		"xpos"			"35"
		"xpos_lodef"	"279"
		"xpos_hidef"	"309"
		"ypos"			"240"
		"zpos"			"-5"
		"wide"			"330"
		"tall"			"1"
		"tall_lodef"	"206"
		"tall_hidef"	"212"
		"autoResize"	"0"
		"pinCorner"		"0"
		"visible"		"0"
		"enabled"		"0"
		"fillcolor"		"255 255 255 255"
		"alpha" "50"
	}

	"16x10Crosshair_horizontal2"
	{
		"ControlName"		"ImagePanel"
		"fieldName"		"VerticalLine"
		"xpos"			"403"
		"xpos_lodef"	"279"
		"xpos_hidef"	"309"
		"ypos"			"240"
		"zpos"			"-5"
		"wide"			"330"
		"tall"			"1"
		"tall_lodef"	"206"
		"tall_hidef"	"212"
		"autoResize"	"0"
		"pinCorner"		"0"
		"visible"		"0"
		"enabled"		"0"
		"fillcolor"		"255 255 255 255"
		"alpha" "50"
	}

	"16x10dark_top"
	{
		"ControlName"		"ImagePanel"
		"fieldName"		"VerticalLine"
		"xpos"			"384"
		"xpos_lodef"	"279"
		"xpos_hidef"	"309"
		"ypos"			"187"
		"zpos"			"-5"
		"wide"			"1"
		"tall"			"38"
		"tall_lodef"	"206"
		"tall_hidef"	"212"
		"autoResize"	"0"
		"pinCorner"		"0"
		"visible"		"0"
		"enabled"		"0"
		"fillcolor"		"255 255 255 255"
		"alpha" "100"
	}

	"16x10dark_bottom"
	{
		"ControlName"		"ImagePanel"
		"fieldName"		"VerticalLine"
		"xpos"			"384"
		"xpos_lodef"	"279"
		"xpos_hidef"	"309"
		"ypos"			"254"
		"zpos"			"-5"
		"wide"			"1"
		"tall"			"38"
		"tall_lodef"	"206"
		"tall_hidef"	"212"
		"autoResize"	"0"
		"pinCorner"		"0"
		"visible"		"0"
		"enabled"		"0"
		"fillcolor"		"255 255 255 255"
		"alpha" "150"
	}

	"16x10dark_left"
	{
		"ControlName"		"ImagePanel"
		"fieldName"		"VerticalLine"
		"xpos"			"315"
		"xpos_lodef"	"279"
		"xpos_hidef"	"309"
		"ypos"			"240"
		"zpos"			"-5"
		"wide"			"50"
		"tall"			"1"
		"tall_lodef"	"206"
		"tall_hidef"	"212"
		"autoResize"	"0"
		"pinCorner"		"0"
		"visible"		"0"
		"enabled"		"0"
		"fillcolor"		"255 255 255 255"
		"alpha" "100"
	}

	"16x10dark_right"
	{
		"ControlName"		"ImagePanel"
		"fieldName"		"VerticalLine"
		"xpos"			"403"
		"xpos_lodef"	"279"
		"xpos_hidef"	"309"
		"ypos"			"240"
		"zpos"			"-5"
		"wide"			"50"
		"tall"			"1"
		"tall_lodef"	"206"
		"tall_hidef"	"212"
		"autoResize"	"0"
		"pinCorner"		"0"
		"visible"		"0"
		"enabled"		"0"
		"fillcolor"		"255 255 255 255"
		"alpha" "100"
	}
	
	//end fighter pilot crosshair (16x10)
	
	//fighter pilot crosshair, enable all of then together for best results (4x3 resolution)
	
	"4x3Crosshair_vertical1"
	{
		"ControlName"		"ImagePanel"
		"fieldName"		"VerticalLine"
		"xpos"			"319"
		"xpos_lodef"	"279"
		"xpos_hidef"	"309"
		"ypos"			"70"
		"zpos"			"-5"
		"wide"			"1"
		"tall"			"154"
		"tall_lodef"	"206"
		"tall_hidef"	"212"
		"autoResize"	"0"
		"pinCorner"		"0"
		"visible"		"0"
		"enabled"		"0"
		"fillcolor"		"255 255 255 255"
		"alpha" "50"
	}
	
	"4x3Crosshair_horizontal1"
	{
		"ControlName"		"ImagePanel"
		"fieldName"		"VerticalLine"
		"xpos"			"10"
		"xpos_lodef"	"279"
		"xpos_hidef"	"309"
		"ypos"			"240"
		"zpos"			"-5"
		"wide"			"290"
		"tall"			"1"
		"tall_lodef"	"206"
		"tall_hidef"	"212"
		"autoResize"	"0"
		"pinCorner"		"0"
		"visible"		"0"
		"enabled"		"0"
		"fillcolor"		"255 255 255 255"
		"alpha" "50"
	}
	
	"4x3Crosshair_horizontal2"
	{
		"ControlName"		"ImagePanel"
		"fieldName"		"VerticalLine"
		"xpos"			"340"
		"xpos_lodef"	"279"
		"xpos_hidef"	"309"
		"ypos"			"240"
		"zpos"			"-5"
		"wide"			"290"
		"tall"			"1"
		"tall_lodef"	"206"
		"tall_hidef"	"212"
		"autoResize"	"0"
		"pinCorner"		"0"
		"visible"		"0"
		"enabled"		"0"
		"fillcolor"		"255 255 255 255"
		"alpha" "50"
	}
	
	"4x3dark_top"
	{
		"ControlName"		"ImagePanel"
		"fieldName"		"VerticalLine"
		"xpos"			"319"
		"xpos_lodef"	"279"
		"xpos_hidef"	"309"
		"ypos"			"186"
		"zpos"			"-5"
		"wide"			"1"
		"tall"			"38"
		"tall_lodef"	"206"
		"tall_hidef"	"212"
		"autoResize"	"0"
		"pinCorner"		"0"
		"visible"		"0"
		"enabled"		"0"
		"fillcolor"		"255 255 255 255"
		"alpha" "100"
	}
	
	"4x3dark_bottom"
	{
		"ControlName"		"ImagePanel"
		"fieldName"		"VerticalLine"
		"xpos"			"319"
		"xpos_lodef"	"279"
		"xpos_hidef"	"309"
		"ypos"			"255"
		"zpos"			"-5"
		"wide"			"1"
		"tall"			"38"
		"tall_lodef"	"206"
		"tall_hidef"	"212"
		"autoResize"	"0"
		"pinCorner"		"0"
		"visible"		"0"
		"enabled"		"0"
		"fillcolor"		"255 255 255 255"
		"alpha" "150"
	}
			
	"4x3dark_left"
	{
		"ControlName"		"ImagePanel"
		"fieldName"		"VerticalLine"
		"xpos"			"250"
		"xpos_lodef"	"279"
		"xpos_hidef"	"309"
		"ypos"			"240"
		"zpos"			"-5"
		"wide"			"50"
		"tall"			"1"
		"tall_lodef"	"206"
		"tall_hidef"	"212"
		"autoResize"	"0"
		"pinCorner"		"0"
		"visible"		"0"
		"enabled"		"0"
		"fillcolor"		"255 255 255 255"
		"alpha" "100"
	}
	

	"4x3dark_right"
	{
		"ControlName"		"ImagePanel"
		"fieldName"		"VerticalLine"
		"xpos"			"340"
		"xpos_lodef"	"279"
		"xpos_hidef"	"309"
		"ypos"			"240"
		"zpos"			"-5"
		"wide"			"50"
		"tall"			"1"
		"tall_lodef"	"206"
		"tall_hidef"	"212"
		"autoResize"	"0"
		"pinCorner"		"0"
		"visible"		"0"
		"enabled"		"0"
		"fillcolor"		"255 255 255 255"
		"alpha" "100"
	}
 
	//end fighter pilot crosshair (4x3)
 

	
	
	HudPlayerStatus
	{
		"fieldName" "HudPlayerStatus"
		"visible" "1"
		"enabled" "1"
		"xpos"	"-310"
		"ypos"	"0"
		"wide"	"f0"
		"tall"	"480"
	}
	HudWeaponAmmo
	{
		"fieldName" "HudWeaponAmmo"
		"visible" "1"
		"enabled" "1"
		"xpos"	"c70"
		"ypos"	"c66"
		"wide"	"300" //was made 4 units taller in MvM update
		"tall"	"300"
	}
	
	HudObjectiveStatus
	{
		"fieldName" "HudObjectiveStatus"
		"visible" "1"
		"enabled" "1"
		"xpos"	"0"
		"ypos"	"0"
		"wide"	"f0"
		"tall"	"480"
	}	
	
	HudKothTimeStatus
	{
		"fieldName" "HudKothTimeStatus"
		"visible" "1"
		"enabled" "1"
		"xpos"	"c-75"
		"ypos"	"0"
		"wide"	"200"
		"tall"	"60"
		
		"blue_active_xpos"			"25"
	
		"red_active_xpos"			"75"
	}	

	HudItemEffectMeter
	{
		"fieldName"		"HudItemEffectMeter"
		"visible"		"1"
		"enabled"		"1"
		"xpos"			"c-75"	[$WIN32]
		"ypos"			"c25"	[$WIN32]
		"wide"			"500"
		"tall"			"500"
		"MeterFG"		"White"
		"MeterBG"		"Gray"
	}
	
    HudMedicCharge
	{
		"fieldName"		"HudMedicCharge"
		"visible"		"1"
		"enabled"		"1"
		"xpos"			"c-150"	
		"ypos"			"c20"	
		"wide"			"500"
		"tall"			"500"
	}
	
	HudDemomanCharge
	{
		"fieldName"		"HudItemEffectMeter"
		"visible"		"1"
		"enabled"		"1"
		"xpos"			"c-75"	[$WIN32]
		"ypos"			"c25"	[$WIN32]
		"wide"			"150"
		"tall"			"500"
		"MeterFG"		"White"
		"MeterBG"		"Gray"
	}	

	HudBowCharge
	{
		"fieldName"		"HudBowCharge"
		"visible"		"1"
		"enabled"		"1"
		"xpos"			"c-100"	
		"ypos"			"c111"	
		"zpos"			"1"			// draw in front of ammo
		"wide"			"500"
		"tall"			"500"
		"MeterFG"		"White"
		"MeterBG"		"Gray"
	}

	HudFlameRocketCharge
	{
		"fieldName"		"HudFlameRocketCharge"
		"visible"		"1"
		"enabled"		"1"
		"xpos"			"r80"	[$WIN32]
		"xpos_minmode"	"r52"	[$WIN32]
		"ypos"			"r21"	[$WIN32]
		"ypos_minmode"	"r40"	[$WIN32]
		"xpos"			"r112"	[$X360]
		"ypos"			"r45"	[$X360]
		"zpos"			"1"			// draw in front of ammo
		"wide"			"60"
		"wide_minmode"	"50"
		"tall"			"8"
		"MeterFG"		"White"
		"MeterBG"		"Gray"
	}

	HudBossHealth
	{
		"fieldName"		"HudBossHealth"
		"visible"		"1"
		"enabled"		"1"
		"xpos"			"c-100"
		"ypos"			"42"
		"zpos"			"0"			// draw in front of ammo
		"wide"			"200"
		"tall"			"50"
		"MeterFG"		"Red"
		"MeterBG"		"Gray"
	}

	HudWeaponSelection
	{
		"fieldName" "HudWeaponSelection"
		"xpos"	"0"
		"wide"	"f0"
		"ypos" 	"0"
		"tall"	"480"
		"RightMargin" "0"
		"RightMargin_hidef" "32"
		"RightMargin_lodef" "38"
		"visible" "1"
		"enabled" "1"
		"SmallBoxWide" "72"
		"SmallBoxTall" "54"
		"PlusStyleBoxWide" "90"
		"PlusStyleBoxTall" "63"
		"PlusStyleExpandSelected"	"0.3"
		"LargeBoxWide" "110"
		"LargeBoxTall" "77"
		"BoxGap" "4"	[$WIN32]
		"BoxGap" "4"	[$X360]
		"SelectionNumberXPos" "12"
		"SelectionNumberYPos" "4"
		"IconXPos" "8"
		"IconYPos" "0"
		"TextYPos" "70"		[$WIN32]
		"TextYPos" "65"		[$X360]
		"ErrorYPos" "48"
		"TextColor" "SelectionTextFg"
		"MaxSlots"	"6"
		"PlaySelectSounds"	"1"
		"Alpha" "220"
		"SelectionAlpha" "220"
		"BoxColor" "0 0 0 220"
		"SelectedBoxClor" "0 0 0 220"
		"SelectionNumberFg"	"200 187 161 255"
		"NumberFont" "HudSelectionText"
	}	
	
	CHudAccountPanel
	{
		"fieldName"				"CHudAccountPanel"
		"xpos"					"c-78"
		"ypos"					"c6"
		"wide"					"116"
		"tall"  				"180"
		"visible" 				"1"
		"enabled" 				"1"
		"PaintBackgroundType"	"2"
	}
	
	CHealthAccountPanel
	{
		"fieldName"				"CHealthAccountPanel"
		"xpos"					"c-200"
		"ypos"					"c45"
		"wide"					"250"
		"tall"  				"120"
		"visible" 				"1"
		"enabled" 				"1"
		"PaintBackgroundType"	"2"
	}
	CDamageAccountPanel
	{
		"fieldName"				"CDamageAccountPanel"
		"xpos"					"0"
		"ypos"					"0"
		"wide"					"f0"
		"tall"					"480"
		"visible" 				"1"
		"enabled" 				"1"
		"PaintBackgroundType"	"2"
	}
	
	DisguiseStatus
	{
		"fieldName" "DisguiseStatus"
		"visible"	"1"
		"enabled"	"1"
		"xpos"		"10"	[$WIN32]
		"zpos"		"-1"
		"ypos"		"r70"	[$WIN32]
		"xpos"		"50"	[$X360]
		"ypos"		"330"	[$X360]
		"wide"		"600"
		"tall"		"200"
		"TextFont"	"Default"	[$X360]
	}

	CMainTargetID
	{
		"fieldName" 	"CMainTargetID"
		"visible" 	"1"
		"enabled" 	"1"
		"xpos"		"c-100"
		"ypos"		"c25"
		"zpos"		"1"
		"wide"	 	"200"
		"tall"	 	"43"
		"priority"	"100"
	}
	
	CSpectatorTargetID
	{
		"fieldName" 	"CSpectatorTargetID"
		"visible" 	"0"
		"enabled" 	"1"
		"xpos"		"c-100"
		"ypos"		"c135"
		"zpos"		"1"
		"wide"	 	"200"
		"tall"	 	"45"
		"priority"	"40"
		
		"x_offset" "20"
		"y_offset" "20"
	}
	
	CSecondaryTargetID
	{
		"fieldName" "CSecondaryTargetID"
		"visible" 	"0"
		"enabled" 	"1"
		"xpos" 		"c-100"
		"ypos" 		"c65"
		"zpos"		"1"
		"wide" 		"200"
		"tall" 		"45"
		"priority" 	"35"
}
	
	BuildingStatus_Spy
	{
		"fieldName" "BuildingStatus_Spy"
		"visible"	"1"
		"enabled"	"1"
		"xpos"		"0"	[$WIN32]
		"ypos"		"0"	[$WIN32]
		"xpos"		"32"	[$X360]
		"ypos"		"16"	[$X360]		
		"wide"		"640"
		"tall"		"480"
		
		"PaintBackgroundType"	"2"
	}
	
	BuildingStatus_Engineer
	{
		"fieldName" "BuildingStatus_Engineer"
		"visible"	"1"
		"enabled"	"1"
		"xpos"		"0"
		"xpos_hidef"		"32"
		"xpos_lodef"		"40"
		"ypos"		"0"
		"ypos_hidef"		"16"
		"ypos_lodef"		"25"
		"wide"		"640"
		"tall"		"480"
		
		"PaintBackgroundType"	"2"
	}
	
	HudMannVsMachineStatus
	{
		"fieldName" "HudMannVsMachineStatus"
		"visible"	"1"
		"enabled"	"1"
		"xpos"		"0"
		"ypos"		"0"
		"zpos"		"1"
		"wide"		"f0"
		"tall"		"480"
		
		"PaintBackgroundType"	"2"
	}
	
	HudProgressBar
	{
		"fieldName" "HudProgressBar"
		"xpos"	"c-150"
		"ypos"	"300"
		"wide"	"300"
		"tall"  "15"
		"visible" "1"
		"enabled" "1"

		"BorderThickness" "1"

		"PaintBackgroundType"	"2"
	}

	HudRoundTimer
	{
		"fieldName" "HudRoundTimer"
		"xpos"	"c-20"
		"ypos"	"440"
		"wide"	"120"
		"tall"  "40"
		"visible" "1"
		"enabled" "1"
		
		"PaintBackgroundType"	"2"

		"FlashColor" "HudIcon_Red"		

		"icon_xpos"		"0"
		"icon_ypos"		"2"
		"digit_xpos"	"34"
		"digit_ypos"	"2"
	}

	HudScenarioIcon 
	{
		"fieldName" "HudScenarioIcon"
		"xpos"	"c110"
		"ypos"	"443"
		"wide"	"40"
		"tall"  "44"
		"visible" "1"
		"enabled" "1"

		"PaintBackgroundType"	"2"

		"IconColor"				"Hostage_Yellow"	
	}
	
	HudFlashlight
	{
		"fieldName" "HudFlashlight"
		"visible" "1"
		"enabled" "1"
		"xpos"	"16"
		"ypos"	"370"
		"wide"	"102"
		"tall"	"20"
		
		"text_xpos" "8"
		"text_ypos" "6"
		"TextColor"	"255 170 0 220"

		"PaintBackgroundType"	"2"
	}

	HudDamageIndicator
	{
//		"fieldName" "HudDamageIndicator"
//		"visible" "1"
//		"enabled" "1"
//		"MinimumWidth" "10"
//		"MaximumWidth" "10"		
//		"StartRadius" "80"
//		"EndRadius" "80"
//		"MinimumHeight" "30"
//		"MaximumHeight" "60"
//		"MinimumTime" "1" 
	}

	HudCommentary
	{
		"fieldName" "HudCommentary"
		"xpos"	"c-190"
		"ypos"	"320"
		"wide"	"380"
		"tall"  "50"
		"visible" "1"
		"enabled" "1"
		
		"PaintBackgroundType"	"2"
		"BackgroundOverrideColor" "0 0 0 128"
		
		"bar_xpos"		"50"
		"bar_ypos"		"20"
		"bar_height"	"8"
		"bar_width"		"320"
		"speaker_xpos"	"50"
		"speaker_ypos"	"8"
		"count_xpos_from_right"	"10"	// Counts from the right side
		"count_ypos"	"8"
		
		"icon_texture"	"vgui/hud/icon_commentary"
		"icon_xpos"		"0"
		"icon_ypos"		"0"		
		"icon_width"	"40"
		"icon_height"	"40"

		"use_script_bgcolor"	"1"
	}

	HudZoom
	{
		"fieldName" "HudZoom"
		"visible" "1"
		"enabled" "1"
		"Circle1Radius" "66"
		"Circle2Radius"	"74"
		"DashGap"	"16"
		"DashHeight" "4"
		"BorderThickness" "88"
	}

	HudCrosshair
	{
		"fieldName" "HudCrosshair"
		"visible" "1"
		"enabled" "1"
		"wide"	 "640"
		"tall"	 "480"
	}

	HudDeathNotice
	{
		"fieldName" "HudDeathNotice"
		"visible" "1"
		"enabled" "1"
		"xpos"	 "r580"	[$WIN32]
		"ypos"	 "30"	[$WIN32]
		"wide"	 "580"
		"tall"	 "468"

		"MaxDeathNotices" "8"
		"IconScale"	  "0.35"
		"LineHeight"	  "14"
		"LineSpacing"	  "0"
		"CornerRadius"	  "0"
		"RightJustify"	  "1"	// If 1, draw notices from the right
		
		"TextFont"		"Default"
		
		"TeamBlue"		"HUDBlueTeamSolid"
		"TeamRed"		"HUDRedTeamSolid"
		"IconColor"		"HudWhite"
		"LocalPlayerColor"	"HUDBlack"

		"BaseBackgroundColor"	"46 43 42 200"		[$WIN32]
		"LocalBackgroundColor"	"245 229 196 200"	[$WIN32]
		"draw_corner_height" "5"
		"draw_corner_width"	"5"
	}

	HudVehicle
	{
		"fieldName" "HudVehicle"
		"visible" "1"
		"enabled" "1"
		"wide"	 "640"
		"tall"	 "480"
	}

	CVProfPanel
	{
		"fieldName" "CVProfPanel"
		"visible" "1"
		"enabled" "1"
		"wide"	 "640"
		"tall"	 "480"
	}

	ScorePanel
	{
		"fieldName" "ScorePanel"
		"visible" "1"
		"enabled" "1"
		"wide"	 "640"
		"tall"	 "480"
	}

	HudTrain
	{
		"fieldName" "HudTrain"
		"visible" "1"
		"enabled" "1"
		"wide"	 "640"
		"tall"	 "480"
	}

	HudMOTD
	{
		"fieldName" "HudMOTD"
		"visible" "1"
		"enabled" "1"
		"wide"	 "640"
		"tall"	 "480"
	}

	HudMessage
	{
		"fieldName" "HudMessage"
		"visible" "1"
		"enabled" "1"
		"wide"	 "f0"
		"tall"	 "480"
	}

	HudMenu
	{
		"fieldName" "HudMenu"
		"visible" "1"
		"enabled" "1"
		"wide"	 "640"
		"tall"	 "480"
		"zpos" "1"

		"TextFont"				"Default"
		"ItemFont"				"Default"
		"ItemFontPulsing"		"Default"

	}

	HudCloseCaption
	{
		"fieldName" "HudCloseCaption"
		"visible"	"1"
		"enabled"	"1"
		"xpos"		"c150"
		"ypos"		"330"	[$WIN32]
		"wide"		"150"
		"tall"		"60"	[$WIN32]

		"BgAlpha"	"0"

		"GrowTime"		"0.25"
		"ItemHiddenTime"	"0.2"  // Nearly same as grow time so that the item doesn't start to show until growth is finished
		"ItemFadeInTime"	"0.15"	// Once ItemHiddenTime is finished, takes this much longer to fade in
		"ItemFadeOutTime"	"0.3"
		"topoffset"		"0"
	}

	HudHistoryResource 
	{
		"fieldName" "HudHistoryResource"
		"visible" "0"
		"enabled" "0"
		"xpos"	 "r640"	[$WIN32]
		"xpos"	 "r672"	[$X360]
		"wide"	 "640"
		"tall"	 "330"
		"history_gap" "55"
	}

	HudGeiger
	{
		"fieldName" "HudGeiger"
		"visible" "1"
		"enabled" "1"
		"wide"	 "640"
		"tall"	 "480"
	}

	HUDQuickInfo
	{
		"fieldName" "HUDQuickInfo"
		"visible" "1"
		"enabled" "1"
		"wide"	 "640"
		"tall"	 "480"
	}

	HudWeapon
	{
		"fieldName" "HudWeapon"
		"visible" "1"
		"enabled" "1"
		"wide"	 "640"
		"tall"	 "480"
	}
	HudAnimationInfo
	{
		"fieldName" "HudAnimationInfo"
		"visible" "1"
		"enabled" "1"
		"wide"	 "640"
		"tall"	 "480"
	}
	CBudgetPanel
	{
		"fieldName" "CBudgetPanel"
		"visible" "1"
		"enabled" "1"
		"wide"	 "640"
		"tall"	 "480"
	}
	CTextureBudgetPanel
	{
		"fieldName" "CTextureBudgetPanel"
		"visible" "1"
		"enabled" "1"
		"wide"	 "640"
		"tall"	 "480"
	}

	HudPredictionDump
	{
		"fieldName" "HudPredictionDump"
		"visible" "1"
		"enabled" "1"
		"wide"	 "1280"
		"tall"	 "1024"
	}


	HudLocation
	{
		"fieldName" "HudLocation"
		"visible"	"1"
		"enabled"	"1"
		"xpos"		"16"
		"ypos"		"112"
		"wide"		"96"
		"tall"		"16"
		"textAlignment"	"north"
	}

	HudScope
	{
		"fieldName" "HudScope"
		"visible" "1"
		"enabled" "1"
		"wide"	 "640"
		"tall"	 "480"
	}
	
	HudScopeCharge
	{
		"fieldName" "HudScopeCharge"
		"visible" "1"
		"enabled" "1"
		"xpos"	 "c64"
		"ypos"	 "c-64"
		"wide"	 "64"
		"tall"	 "128"
	}
	
	HudVoiceSelfStatus
	{
		"fieldName" "HudVoiceSelfStatus"
		"visible" "1"
		"enabled" "1"
		"xpos" "r42" 	[$WIN32]
		"ypos" "355"	[$WIN32]
		"xpos" "r75"	[$X360]
		"ypos" "375"	[$X360]
		"wide" "32"
		"tall" "32"
	}

	HudVoiceStatus
	{
		"fieldName" "HudVoiceStatus"
		"visible" "1"
		"enabled" "1"
		"xpos" "r145" [$WIN32]
		"ypos" "0" [$WIN32]
		"xpos" "r210" [$X360]
		"ypos" "0" [$X360]
		"wide" "145"
		"tall" "400"

		"item_wide"	"135"
		
		"show_avatar"		"1"
		"avatar_xpos"		"1"
		
		"show_dead_icon"	"1"
		"dead_xpos"			"118"
		"dead_ypos"			"0"
		"dead_wide"			"16"
		"dead_tall"			"16"
		
		"show_voice_icon"	"1"
		"icon_ypos"			"0"
		"icon_xpos"			"28"
		"icon_tall"			"16"
		"icon_wide"			"16"
		
		"text_xpos"			"45"
	}

	HudHintDisplay
	{
		"fieldName"				"HudHintDisplay"
		"visible"				"0"
		"enabled"				"1"
		"xpos"					"c-240"
		"ypos"					"c60"
		"wide"					"480"
		"tall"					"100"
		"HintSize"				"1"
		"text_xpos"				"8"
		"text_ypos"				"8"
		"center_x"				"0"	// center text horizontally
		"center_y"				"-1"	// align text on the bottom
	}	

	HudHintKeyDisplay
	{
		"fieldName"	"HudHintKeyDisplay"
		"visible"	"0"
		"enabled" 	"1"
		"xpos"		"r120"
		"ypos"		"r340"
		"wide"		"100"
		"tall"		"200"
		"text_xpos"	"8"
		"text_ypos"	"8"
		"text_xgap"	"8"
		"text_ygap"	"8"
		"TextColor"	"255 170 0 220"

		"PaintBackgroundType"	"2"
	}
	
	overview
	{
		"fieldname" "overview"
		"visible"	"1"
		"enabled" "1"
		"xpos"	"0"
		"ypos"	"0"
		"wide"	"640"
		"tall"	"480"
	}
	
	VguiScreenCursor
	{
		"fieldName" "VguiScreenCursor"
		"visible" "1"
		"enabled" "1"
		"wide"	 "640"
		"tall"	 "480"
	}

	HudControlPointIcons
	{
		"fieldName"				"HudControlPointIcons"
		"xpos"					"0"
		"ypos"					"410"
		"wide"					"f0"
		"tall"					"200"
		"visible"				"1"
		"enabled"				"1"
		"separator_width"		"3"	// distance between the icons (including their backgrounds)
		"separator_height"		"3"
		"height_offset"			"3"	[$WIN32] // distance from the bottom of the panel
	}

	HudCapturePanel
	{
		"fieldName"				"HudCapturePanel"
		"xpos"					"c-75"
		"ypos"					"c80"
		"wide"					"150"
		"tall"					"90"
		"visible"				"1"
		"enabled"				"1"
		"icon_space"			"2"
	}
	
	HUDAutoAim
	{

	}	
	
	HudHDRDemo
	{

	}

	WinPanel
	{
		"fieldName"				"WinPanel"
		"visible"				"1"
		"enabled"				"1"
		"xpos"					"c-200"
		"ypos"					"290"
		"wide"					"f0"
		"tall"					"480"
	}

	ArenaWinPanel
	{
		"fieldName"				"ArenaWinPanel"
		"visible"				"1"
		"enabled"				"1"
		"xpos"					"c-225"
		"ypos"					"260"
		"wide"					"450"
		"tall"					"300"
	}
	
	PVEWinPanel
	{
		"fieldName"				"PVEWinPanel"
		"visible"				"1"
		"enabled"				"1"
		"xpos"					"c-150"
		"ypos"					"255"
		"wide"					"300"
		"tall"					"215"
	}

	StatPanel
	{
		"fieldName"				"StatPanel"
		"visible"				"1"
		"enabled"				"1"
		"xpos"					"9999"
		"ypos"					"9999"
		"wide"					"266"
		"tall"					"120"
	}
	
	FreezePanel
	{
		"fieldName"				"FreezePanel"
		"visible"				"1"
		"enabled"				"1"
		"xpos"					"0"
		"ypos"					"0"
		"wide"					"f0"
		"tall"					"480"
	}

	FreezePanelCallout
	{
		"fieldName"				"FreezePanelCallout"
		"visible"				"1"
		"enabled"				"1"
		"xpos"					"200"
		"ypos"					"200"
		"wide"					"100"
		"tall"					"50"
	}

	AnnotationsPanelCallout
	{
		"fieldName"			"AnnotationsPanelCallout"
		"visible"				"1"
		"enabled"				"1"
		"xpos"					"200"
		"ypos"					"200"
		"wide"					"100"
		"tall"					"50"
	}
	
	AnnotationsPanel
	{
		
	}

	WaitingForPlayersPanel
	{
		"fieldName"				"WaitingForPlayersPanel"
		"visible"				"0"
		"enabled"				"1"
		"xpos"					"c-146"
		"ypos"					"10"
		"wide"					"292"
		"tall"					"64"
	}
	
	"HudUpgradePanel"
	{
		"fieldName"		"HudUpgradePanel"
		"visible"		"0"
		"enable"		"1"
		"xpos"			"c-200"
		"ypos"			"260"
		"wide"			"400"
		"tall"			"160"		
	}

	"HudChat"
	{
		"ControlName"		"EditablePanel"
		"fieldName" 		"HudChat"
		"visible" 		"1"
		"enabled" 		"1"
		"xpos"			"10"	[$WIN32]
		"xpos"			"42"	
		"ypos"			"275"
		"wide"	 		"320"
		"tall"	 		"120"
		"PaintBackgroundType"	"2"
	}
	
	"HudMenuEngyBuild"
	{
		"fieldName" 	"HudMenuEngyBuild"
		"visible" 		"1"
		"enabled" 		"1"
		"xpos"			"c-250"
		"ypos"			"c-75"
		"wide"			"500"
		"tall"			"200"
		"PaintBackgroundType"	"0"
	}
	
	"HudMenuEngyDestroy"
	{
		"fieldName" 	"HudMenuEngyDestroy"
		"visible" 		"1"
		"enabled" 		"1"
		"xpos"			"c-250"
		"ypos"			"c-75"
		"wide"			"500"
		"tall"			"200"
		"PaintBackgroundType"	"0"
	}
	
	"HudEurekaEffectTeleportMenu"
	{
		"fieldName" 	"HudEurekaEffectTeleportMenu"
		"visible" 		"1"
		"enabled" 		"1"
		"xpos"			"c-125"
		"ypos"			"c-55"
		"wide"			"250"
		"tall"			"195"
		"PaintBackgroundType"	"0"
	}
	
	"HudMenuSpyDisguise"
	{
		"fieldName" 	"HudMenuSpyDisguise"
		"visible" 		"1"
		"enabled" 		"1"
		"xpos"			"c90"
		"ypos"			"c-72"
		"wide"			"490"
		"tall"			"220"	[$WIN32]
		"PaintBackgroundType"	"0"
	}	
	
	HudDemomanPipes
	{
		"fieldName"		"HudItemEffectMeter"
		"visible"		"1"
		"enabled"		"1"
		"xpos"			"c75"	[$WIN32]
		"ypos"			"c137"	[$WIN32]
		"wide"			"150"
		"tall"			"50"
		"MeterFG"		"White"
		"MeterBG"		"Gray"
	}	

	HudTeamGoal
	{
		"fieldName"				"HudTeamGoal"
		"visible"				"0"
		"enabled"				"1"
		"xpos"					"c-160"
		"ypos"					"65"
		"wide"					"0"
		"tall"					"0"
	}


	HudTeamGoalTournament
	{
		"fieldName"				"HudTeamGoalTournament"
		"visible"				"0"
		"enabled"				"1"
		"xpos"					"c-60"
		"ypos"					"20"
		"wide"					"0"
		"tall"					"0"
	}

	HudTeamSwitch
	{
		"fieldName"				"HudTeamSwitch"
		"visible"				"0"
		"enabled"				"1"
		"xpos"					"c-160"
		"ypos"					"75"
		"ypos_hidef"				"90"
		"ypos_lodef"			"90"
		"wide"					"320"
		"tall"					"100"
	}

	HudArenaNotification
	{
		"fieldName"				"HudArenaNotification"
		"visible"				"0"
		"enabled"				"1"
		"xpos"					"c-160"
		"ypos"					"75"
		"ypos_hidef"				"90"
		"ypos_lodef"				"90"
		"wide"					"320"
		"tall"					"150"
	}

	HudArenaCapPointCountdown
	{
		"fieldName"				"HudArenaCapPointCountdown"
		"visible"				"1"
		"enabled"				"1"
		"xpos"					"c-15"
		"ypos"					"442"
		"wide"					"30"
		"tall"					"30"
		"zpos"					"99"
	}

	HudStalemate
	{
		"fieldName"				"HudStalemate"
		"visible"				"0"
		"enabled"				"1"
		"xpos"					"c-160"
		"ypos"					"65"
		"ypos_lodef"				"75"
		"wide"					"320"
		"tall"					"100"
	}
	HudTournament
	{
		"fieldName"				"HudTournament"
		"visible"				"0"
		"enabled"				"1"
		"xpos"					"c-100"
		"ypos"					"5"
		"ypos_lodef"				"75"
		"zpos"					"2"
		"wide"					"250"
		"tall"					"80"
	}

	HudTournamentSetup
	{
		"fieldName"				"HudTournamentSetup"
		"visible"				"0"
		"enabled"				"1"
		"xpos"					"c-90"
		"ypos"					"-70"
		"ypos_lodef"				"75"
		"wide"					"180"
		"tall"					"65"
	}

	HudStopWatch
	{
		"fieldName"				"HudStopWatch"
		"visible"				"1"
		"enabled"				"1"
		"xpos"					"c-150"
		"ypos"					"0"
		"wide"					"300"
		"tall"					"55"
	}
	
	NotificationPanel
	{
		"fieldName"				"NotificationPanel"
		"visible"				"1"
		"enabled"				"1"
		"xpos"					"c-320"
		"ypos"					"300"
		"wide"					"640"
		"tall"					"100"
	}

	AchievementNotificationPanel	
	{
		"fieldName"				"AchievementNotificationPanel"
		"visible"				"1"
		"enabled"				"1"
		"xpos"					"0"
		"ypos"					"180"
		"wide"					"f10"	[$WIN32]
		"wide"					"f60"	[$X360]
		"tall"					"100"
	}

	CriticalPanel [$WIN32]
	{
		"fieldName"				"CriticalPanel"		
		"visible"				"1"
		"enabled"				"1"
		"xpos"					"r155"
		"ypos"					"r75"
		"wide"					"150"
		"tall"					"25"
	}
	
	HudArenaClassLayout [$WIN32]
	{
		"fieldName"				"HudArenaClassLayout"		
		"visible"				"1"
		"enabled"				"1"
		"xpos"					"0"
		"ypos"					"r320"
		"wide"					"f0"
		"tall"					"320"
	}
	
	HudArenaVsPanel [$WIN32]
	{
		"fieldName"				"HudArenaVsPanel"		
		"visible"				"1"
		"enabled"				"1"
		"xpos"					"0"
		"ypos"					"240"
		"wide"					"f0"
		"tall"					"240"
	}
	
	HudArenaPlayerCount [$WIN32]
	{
		"fieldName"				"HudArenaPlayerCount"		
		"visible"				"1"
		"enabled"				"1"
		"xpos"					"0"
		"ypos"					"0"
		"wide"					"f0"
		"tall"					"50"
	}	
	
	"HudAchievementTracker"
	{
		"ControlName"	"EditablePanel"
		"fieldName"		"HudAchievementTracker"
		"xpos"			"5"
		"NormalY"		"170"
		"EngineerY"		"320"
		"zpos"			"2"
		"wide"			"200"
		"tall"			"280"
		"visible"		"1"
		"enabled"		"1"	
	}
	
	HudTrainingInfoMsg
	{
		"fieldName"				"HudTrainingInfoMsg"
		"visible"				"0"
		"enabled"				"1"
		"xpos"					"10"
		"ypos"					"50"
		"wide"					"200"
		"tall"					"300"
	}
	
	HudTrainingMsg
	{
		
	}
	
	TrainingComplete
	{
		
	}

	HudInspectPanel
	{
		"fieldName"				"HudInspectPanel"
		"visible"				"1"
		"enabled"				"1"
		"xpos"					"r240"
		"ypos"					"150"
		"zpos"					"10"
		"wide"					"500"
		"tall"					"3000"
	}
	
	HudTFCrosshair
	{
		"fieldName" "HudTFCrosshair"
		"visible" "1"
		"enabled" "1"
		"wide"	 "640"
		"tall"	 "480"
	}
	
	ItemQuickSwitchPanel
	{
		"fieldName"				"ItemQuickSwitchPanel"
		"visible"				"0"
		"enabled"				"1"
		"xpos"			"c-125"
		"ypos"			"280"
		"wide"			"250"
		"tall"			"160"
	}
	
	ReplayReminder
	{
		"fieldName"		"ReplayReminder"
		"visible"		"0"
		"enable"		"1"
	}
	
	MainMenuAdditions
	{
		"fieldName"		"MainMenuAdditions"
		"visible"		"1"
		"enabled"		"1"
		"xpos"			"500"
		"ypos"			"310"
		"zpos"			"0"
		"wide"			"300"
		"tall"			"100"
	}	

	CoachedByPanel
	{
		"fieldName"		"CoachedByPanel"
		"visible"		"0"
		"enable"		"1"
		"xpos"			"5"
		"ypos"			"10"
		"wide"			"250"
		"tall"			"44"
	}

	ItemTestHUDPanel
	{
		"fieldName"		"ItemTestHUDPanel"
		"visible"		"0"
		"enable"		"1"
		"xpos"			"5"
		"ypos"			"10"
		"wide"			"150"
		"tall"			"44"
	}

	NotificationQueuePanel
	{
		"fieldName"		"NotificationQueuePanel"
		"visible"		"0"
		"enable"		"1"
		"xpos"			"r155"
		"ypos"			"r90"
		"zpos"			"100"
		"wide"			"200"
		"tall"			"0"
	}
	
	"CHudVote"
	{
		"fieldName"		"CHudVote"
		"xpos"			"0"			
		"ypos"			"0"
		"wide"			"640"
		"tall"			"480"
		"visible"		"1"
		"enabled"		"1"
		"bgcolor_override"	"0 0 0 0"
		"PaintBackgroundType"	"0" // rounded corners
	}

	"HudAlert"
	{
		"fieldName"		"HudAlert"
		"visible"		"0"
		"enable"		"1"
		"xpos"			"c-160"
		"ypos"			"100"
		"wide"			"320"
		"tall"			"150"
	}
	
	"HudSpellMenu"
	{
		"fieldName" "HudSpellMenu"
		"visible" "1"
		"enabled" "1"
		"wide" "640"
		"tall" "700"
		"zpos" "2"
		"xpos" "183"
		"ypos" "r90"

		"TextFont" "BigNoodleTitling14"
		"ItemFont" "BigNoodleTitling14"
		"ItemFontPulsing" "BigNoodleTitling14"
	}
	
	"CTFKillStreakNotice"
	{
		"fieldName"		"CTFKillStreakNotice"
		"xpos"			"0"			
		"ypos"			"0"
		"wide"			"640"
		"tall"			"480"
		"visible"		"1"
		"enabled"		"1"
		"bgcolor_override"	"0 0 0 0"
		"PaintBackgroundType"	"0" // rounded corners
	}
	
	CTFFlagCalloutPanel
	{
		"fieldName"		"CTFFlagCalloutPanel"
		"visible" 		"0"
		"enabled" 		"1"
		"xpos"			"0"
		"ypos"			"0"
		"wide"	 		"40"
		"tall"	 		"40"
		"priority"		"40"
	}
	
	"HudMenuTauntSelection"
	{
		"fieldName" 	"HudMenuTauntSelection"
		"visible" 		"1"
		"enabled" 		"1"
		"xpos"			"c-235"
		"ypos"			"c-52"
		"ypos_hidef"	"c-42"
		"ypos_lodef"	"c-42"
		"wide"			"470"
		"tall"			"200"
		"PaintBackgroundType"	"0"
	}
	
	HudMiniGame
	{
		"fieldName" "HudMiniGame"
		"visible" "1"
		"enabled" "1"
		"xpos"	"0"
		"ypos"	"0"
		"wide"	"f0"
		"tall"	"480"
	}
}