"Resource/UI/build_menu/dispenser_inactive.res"
{
	"ItemNameLabel"
	{	
		"ControlName"	"CExLabel"
		"fieldName"		"ItemNameLabel"
		"font"			"WeblySleek12"
		"xpos"			"15"
		"ypos"			"2"
		"zpos"			"1"
		"wide"			"70"
		"tall"			"15"
		"autoResize"	"0"
		"pinCorner"		"0"
		"visible"		"1"
		"enabled"		"1"
		"labelText"		"#TF_Object_Dispenser"
		"textAlignment"	"Center"
		"dulltext"		"0"
		"brighttext"	"0"
	}
	
	"ItemBackground"	
	{
		"ControlName"	"CIconPanel"
		"fieldName"		"ItemBackground"
		"xpos"			"9999"
		"ypos"			"9999"
		"zpos"			"0"
		"wide"			"98"
		"tall"			"105"
		"visible"		"1"
		"enabled"		"1"
		"scaleImage"	"1"	
		"icon"			"hud_menu_item_bg_outline"
		"iconColor"		"ProgressOffWhiteTransparent"
	}
	
	"NotBuiltLabel"
	{	
		"ControlName"	"CExLabel"
		"fieldName"		"NotBuiltLabel"
		"font"			"WeblySleek16"
		"xpos"			"10"
		"ypos"			"48"
		"zpos"			"2"
		"wide"			"80"
		"tall"			"18"
		"autoResize"	"0"
		"pinCorner"		"0"
		"visible"		"1"
		"enabled"		"1"
		"labelText"		"#TF_NotBuilt"
		"textAlignment"	"Center"
		"dulltext"		"0"
		"brighttext"	"0"
	}

	"UnavailableLabel"
	{	
		"ControlName"	"CExLabel"
		"fieldName"		"UnavailableLabel"
		"font"			"WeblySleek16"
		"xpos"			"10"
		"ypos"			"48"
		"zpos"			"2"
		"wide"			"80"
		"tall"			"18"
		"autoResize"	"0"
		"pinCorner"		"0"
		"visible"		"0"
		"enabled"		"1"
		"labelText"		"#Hud_Menu_Build_Unavailable"
		"textAlignment"	"Center"
		"dulltext"		"0"
		"brighttext"	"0"
	}		
		
	"NumberBg"	
	{
		"ControlName"	"CIconPanel"
		"fieldName"		"NumberBg"
		"xpos"			"9999"
		"ypos"			"9999"
		"zpos"			"0"
		"wide"			"18"
		"tall"			"18"
		"visible"		"1"
		"enabled"		"1"
		"scaleImage"	"1"	
		"icon"			"ico_key_blank"
		"iconColor"		"255 255 255 255"
	}
	
	"NumberLabel"
	{	
		"ControlName"	"CExLabel"
		"fieldName"		"NumberLabel"
		"font"			"WeblySleek16"
		"fgcolor"		"TanLight"
		"xpos"			"0"
		"ypos"			"95"
		"zpos"			"1"
		"wide"			"100"
		"tall"			"18"
		"autoResize"	"0"
		"pinCorner"		"0"
		"visible"		"1"
		"enabled"		"1"
		"labelText"		"2"
		"textAlignment"	"Center"
		"dulltext"		"1"
		"brighttext"	"0"
	}
	"NumberLabelShadow"
	{	
		"ControlName"	"CExLabel"
		"fieldName"		"NumberLabel"
		"font"			"WeblySleek16"
		"fgcolor"		"TransparentBlack"
		"xpos"			"1"
		"ypos"			"96"
		"zpos"			"1"
		"wide"			"100"
		"tall"			"18"
		"autoResize"	"0"
		"pinCorner"		"0"
		"visible"		"1"
		"enabled"		"1"
		"labelText"		"2"
		"textAlignment"	"Center"
		"dulltext"		"1"
		"brighttext"	"0"
	}
}