"Resource/UI/build_menu/base.res"
{
	"ItemNameLabel"
	{	
		"ControlName"	"CExLabel"
		"fieldName"		"ItemNameLabel"
		"font"			"WeblySleek12"
		"xpos"			"15"
		"ypos"			"2"
		"zpos"			"1"
		"wide"			"70"
		"tall"			"15"
		"autoResize"	"0"
		"pinCorner"		"0"
		"visible"		"1"
		"enabled"		"1"
		"labelText"		"#TF_Object_Sentry"
		"textAlignment"	"Center"
		"dulltext"		"0"
		"brighttext"	"0"
	}

	"ItemBackground"
	{
		"ControlName"	"CIconPanel"
		"fieldName"		"ItemBackground"
		"xpos"			"9999"
		"ypos"			"9999"
		"zpos"			"0"
		"wide"			"98"
		"tall"			"105"
		"visible"		"1"
		"enabled"		"1"
		"scaleImage"	"1"	
		"icon"			"hud_menu_item_bg"
		"iconColor"		"ProgressOffWhite"
	}
	
	"BuildingIcon"	
	{
		"ControlName"	"CIconPanel"
		"fieldName"		"BuildingIcon"
		"xpos"			"22"
		"ypos"			"33"
		"zpos"			"2"
		"wide"			"56"
		"tall"			"56"
		"visible"		"1"
		"enabled"		"1"
		"scaleImage"	"1"	
		"icon"			"hud_menu_sentry_build"
		"iconColor"		"255 255 255 255"
	}
	
	"MetalIcon"	
	{
		"ControlName"	"CIconPanel"
		"fieldName"		"MetalIcon"
		"xpos"			"34"
		"ypos"			"18"
		"zpos"			"1"
		"wide"			"10"
		"tall"			"10"
		"visible"		"1"
		"enabled"		"1"
		"scaleImage"	"1"	
		"icon"			"ico_metal"
		"iconColor"		"TanLight"
	}
	
	"CostLabel"
	{	
		"ControlName"	"CExLabel"
		"fieldName"		"CostLabel"
		"font"			"WeblySleek12"
		"fgcolor"		"TanLight"
		"xpos"			"49"
		"ypos"			"16"
		"zpos"			"1"
		"wide"			"84"
		"tall"			"13"
		"autoResize"	"0"
		"pinCorner"		"0"
		"visible"		"1"
		"enabled"		"1"
		"labelText"		"%metal%"
		"textAlignment"	"Left"	
	}
	
	"ModeLabel"
	{	
		"ControlName"	"CExLabel"
		"fieldName"		"ModeLabel"
		"font"			"DefaultSmall"
		"fgcolor"		"TanDarker"
		"xpos"			"33"
		"ypos"			"17"
		"zpos"			"1"
		"wide"			"44"
		"tall"			"13"
		"autoResize"	"0"
		"pinCorner"		"0"
		"visible"		"1"
		"enabled"		"1"
		"labelText"		""
		"textAlignment"	"East"	
	}
	
	"NumberBg"	
	{
		"ControlName"	"CIconPanel"
		"fieldName"		"NumberBg"
		"xpos"			"9999"
		"ypos"			"9999"
		"zpos"			"0"
		"wide"			"18"
		"tall"			"18"
		"visible"		"1"
		"enabled"		"1"
		"scaleImage"	"1"	
		"icon"			"ico_key_blank"
		"iconColor"		"255 255 255 255"
	}
	
	"NumberLabel"
	{	
		"ControlName"	"CExLabel"
		"fieldName"		"NumberLabel"
		"font"			"WeblySleek14"
		"fgcolor"		"TanLight"
		"xpos"			"0"
		"ypos"			"95"
		"zpos"			"1"
		"wide"			"100"
		"tall"			"18"
		"autoResize"	"0"
		"pinCorner"		"0"
		"visible"		"1"
		"enabled"		"1"
		"labelText"		"1"
		"textAlignment"	"Center"
		"dulltext"		"1"
		"brighttext"	"0"
	}
	"NumberLabelShadow"
	{	
		"ControlName"	"CExLabel"
		"fieldName"		"NumberLabel"
		"font"			"WeblySleek14"
		"fgcolor"		"TransparentBlack"
		"xpos"			"1"
		"ypos"			"96"
		"zpos"			"1"
		"wide"			"100"
		"tall"			"18"
		"autoResize"	"0"
		"pinCorner"		"0"
		"visible"		"1"
		"enabled"		"1"
		"labelText"		"1"
		"textAlignment"	"Center"
		"dulltext"		"1"
		"brighttext"	"0"
	}
}