"Resource/UI/build_menu/base_unavailable.res"
{
	"ItemNameLabel"
	{	
		"ControlName"	"CExLabel"
		"fieldName"		"ItemNameLabel"
		"font"			"WeblySleek16"
		"xpos"			"40"
		"ypos"			"-1"
		"zpos"			"1"
		"wide"			"84"
		"tall"			"15"
		"autoResize"	"0"
		"pinCorner"		"0"
		"visible"		"1"
		"enabled"		"1"
		"labelText"		"#TF_Object_Sentry"
		"labelText_lodef"		"#TF_Object_Sentry_360"
		"textAlignment"	"Left"
		"dulltext"		"0"
		"brighttext"	"0"
	}
	
	"ItemBackground"	
	{
		"ControlName"	"CIconPanel"
		"fieldName"		"ItemBackground"
		"xpos"			"9999"
		"ypos"			"9999"
		"zpos"			"0"
		"wide"			"98"
		"tall"			"105"
		"visible"		"1"
		"enabled"		"1"
		"scaleImage"	"1"	
		"icon"			"hud_menu_item_bg_outline"
		"iconColor"		"ProgressOffWhiteTransparent"
	}
	
	"CantBuildReason"
	{	
		"ControlName"	"CExLabel"
		"fieldName"		"CantBuildReason"
		"font"			"WeblySleek16"
		"xpos"			"10"
		"ypos"			"48"
		"zpos"			"2"
		"wide"			"80"
		"tall"			"18"
		"autoResize"	"0"
		"pinCorner"		"0"
		"visible"		"1"
		"enabled"		"1"
		"labelText"		"#Hud_Menu_Build_Unavailable"
		"textAlignment"	"Center"
		"dulltext"		"0"
		"brighttext"	"0"
	}

	"ModeLabel"
	{	
		"ControlName"	"CExLabel"
		"fieldName"		"ModeLabel"
		"font"			"DefaultSmall"
		"fgcolor"		"TanDark"
		"xpos"			"33"
		"ypos"			"17"
		"zpos"			"1"
		"wide"			"44"
		"tall"			"13"
		"autoResize"	"0"
		"pinCorner"		"0"
		"visible"		"1"
		"enabled"		"1"
		"labelText"		""
		"textAlignment"	"East"	
	}
		
	"NumberBg"	
	{
		"ControlName"	"CIconPanel"
		"fieldName"		"NumberBg"
		"xpos"			"9999"
		"ypos"			"9999"
		"zpos"			"0"
		"wide"			"18"
		"tall"			"18"
		"visible"		"1"
		"enabled"		"1"
		"scaleImage"	"1"	
		"icon"			"ico_key_blank"
		"iconColor"		"255 255 255 255"
	}
	
	"NumberLabel"
	{	
		"ControlName"	"CExLabel"
		"fieldName"		"NumberLabel"
		"font"			"WeblySleek16"
		"fgcolor"		"TanLight"
		"xpos"			"0"
		"ypos"			"98"
		"zpos"			"1"
		"wide"			"100"
		"tall"			"18"
		"autoResize"	"0"
		"pinCorner"		"0"
		"visible"		"1"
		"enabled"		"1"
		"labelText"		"1"
		"textAlignment"	"Center"
		"dulltext"		"1"
		"brighttext"	"0"
	}
}