"Resource/UI/HudKillStreakNotice.res"
{        
        "Background"
        {
                "ControlName"        "EditablePanel"
                "fieldName"                "Background"
                "xpos"                        "c-250"
                "ypos"                        "50"
                "zpos"                        "0"
                "wide"                        "500"
                "tall"                        "50"
                "autoResize"        "0"
                "visible"                "1"
                "enabled"                "1"
                "PaintBackgroundType"        "2"
                "bgcolor_override"        "46 43 42 160"        
        }
        
        "SplashLabel"
        {
                "ControlName"        "CExLabel"
                "fieldName"                "SplashLabel"
                "font"                        "HudFontSmallestBold"
                "labelText"                ""
                "textAlignment" "center"
                "xpos"                        "c-250"
                "ypos"                        "50"
                "zpos"                        "2"
                "wide"                        "500"
                "tall"                        "50"
                "autoResize"        "0"
                "fgcolor"                "tanlight"
        }
}