"Resource/UI/HudObjectiveTimePanel.res"
{	
	"TimePanelBG"
	{
		"ControlName"	"ScalableImagePanel"
		"fieldName"		"TimePanelBG"
		"xpos"			"25"
		"ypos"			"20"
		"zpos"			"2"
		"wide"			"50"
		"tall"			"5"
		"visible"		"1"
		"enabled"		"1"
		"image"			"../hud/objectives_timepanel_blue_bg"	
		"scaleImage"	"1"
		"src_corner_height" "3"
		"src_corner_width" "3"
		"draw_corner_width" "0"
		"draw_corner_height" "0"
	}
	"TimePanelBG2"
	{
		"ControlName"	"ImagePanel"
		"fieldName"		"TimePanelBG2"
		"xpos"			"20"
		"ypos"			"0"
		"zpos"			"2"
		"wide"			"60"
		"tall"			"45"
		"visible"		"0"
		"enabled"		"0"
		"fillcolor"     "0 0 0 100"
	}
	"TimePanelProgressBar"
	{
		"ControlName"			"CTFProgressBar"
		"fieldName"			"TimePanelProgressBar"
		"xpos"				"67"
		"ypos"				"16"
		"zpos"				"4"	
		"wide"				"20"
		"wide_lodef"		"25"
		"tall"				"20"
		"tall_lodef"		"25"	
		"visible"			"0"
		"visible_minmode"	"0"
		"enabled"			"1"
		"scaleImage"			"1"
		"image"				"../hud/objectives_timepanel_progressbar"
		"color_active"			"TimerProgress.Active"
		"color_inactive"		"TimerProgress.InActive"
		"color_warning"			"TimerProgress.Warning"
		"percent_warning"		"0.75"
	}
	"WaitingForPlayersLabel"
	{
		"ControlName"		"CExLabel"
		"fieldName"		"WaitingForPlayersLabel"
		"xpos"			"25"
		"ypos"			"24"
		"zpos"			"5"
		"wide"			"50"
		"tall"			"19"
		"visible"		"0"
		"enabled"		"1"
		"labelText"		"#game_WaitingForPlayers"
		"textAlignment"		"center"
		"dulltext"		"0"
		"brighttext"		"0"
		"wrap"			"0"
		"font"			"WeblySleek12"
	}			
	"WaitingForPlayersBG"
	{
		"ControlName"		"CTFImagePanel"
		"fieldName"		"WaitingForPlayersBG"
		"xpos"			"9999"	[$WIN32]
		"ypos"			"9999"
		"ypos_hidef"	"-100"	//off-screen
		"ypos_lodef"	"-100"	//off-screen
		"zpos"			"1"
		"wide"			"78"
		"tall"			"20"
		"tall_minmode"	"0"
		"visible"		"0"
		"enabled"		"1"
		"image"			"../hud/objectives_timepanel_suddendeath"	
		"scaleImage"		"1"	
	}
	"OvertimeLabel"
	{
		"ControlName"		"CExLabel"
		"fieldName"		"OvertimeLabel"
		"xpos"			"25"
		"ypos"			"43"
		"zpos"			"5"
		"wide"			"50"
		"tall"			"19"
		"visible"		"0"
		"enabled"		"1"
		"labelText"		"#game_Overtime"
		"textAlignment"		"center"
		"dulltext"		"0"
		"brighttext"		"0"
		"wrap"			"0"
		"font"			"WeblySleek12"
	}			
	"OvertimeBG"
	{
		"ControlName"		"CTFImagePanel"
		"fieldName"		"OvertimeBG"
		"xpos"			"9999"	[$WIN32]
		"ypos"			"9999"
		"ypos_hidef"	"-100"	//off-screen
		"ypos_lodef"	"-100"	//off-screen
		"zpos"			"1"
		"wide"			"78"
		"tall"			"20"
		"tall_minmode"	"0"
		"visible"		"0"
		"enabled"		"1"
		"image"			"../hud/objectives_timepanel_suddendeath"	
		"scaleImage"		"1"	
	}
	"SuddenDeathLabel"
	{
		"ControlName"		"CExLabel"
		"fieldName"		"SuddenDeathLabel"
		"xpos"			"25"
		"ypos"			"43"
		"ypos_hidef"	"41"
		"ypos_lodef"	"41"
		"zpos"			"5"
		"wide"			"50"
		"tall"			"19"
		"visible"		"0"
		"enabled"		"1"
		"labelText"		"#game_SuddenDeath"
		"textAlignment"		"center"
		"dulltext"		"0"
		"brighttext"		"0"
		"wrap"			"0"
		"font"			"WeblySleek12"
	}			
	"SuddenDeathBG"
	{
		"ControlName"		"CTFImagePanel"
		"fieldName"		"SuddenDeathBG"
		"xpos"			"9999"	[$WIN32]
		"ypos"			"9999"
		"ypos_hidef"	"-100"	//off-screen
		"ypos_lodef"	"-100"	//off-screen
		"zpos"			"1"
		"wide"			"78"
		"tall"			"20"
		"tall_minmode"	"0"
		"visible"		"0"
		"enabled"		"1"
		"image"			"../hud/objectives_timepanel_suddendeath"	
		"scaleImage"		"1"	
	}	
	"SetupLabel"
	{
		"ControlName"	"CExLabel"
		"fieldName"		"SetupLabel"
		"xpos"			"25"
		"ypos"			"43"
		"zpos"			"5"
		"wide"			"50"
		"tall"			"19"
		"visible"		"0"
		"enabled"		"1"
		"labelText"		"#game_Setup"
		"textAlignment"		"center"
		"dulltext"		"0"
		"brighttext"		"0"
		"wrap"			"0"
		"font"			"WeblySleek12"
	}	
	"SetupBG"
	{
		"ControlName"		"CTFImagePanel"
		"fieldName"		"SetupBG"
		"xpos"			"9999"	[$WIN32]
		"ypos"			"9999"
		"ypos_hidef"	"-100"	//off-screen
		"ypos_lodef"	"-100"	//off-screen
		"zpos"			"1"
		"wide"			"78"
		"tall"			"20"
		"tall_minmode"	"0"
		"visible"		"0"
		"enabled"		"1"
		"image"			"../hud/objectives_timepanel_suddendeath"	
		"scaleImage"		"1"	
	}
	"ServerTimeLimitLabel"
	{
		"ControlName"	"CExLabel"
		"fieldName"		"ServerTimeLimitLabel"
		"xpos"			"25"
		"ypos"			"24"
		"zpos"			"5"
		"wide"			"50"
		"wide_hidef"	"300"
		"wide_lodef"	"300"
		"tall"			"19"
		"tall_hidef"	"19"
		"tall_lodef"	"22"
		"visible"		"0"
		"enabled"		"1"
		"labelText"		"%servertimeleft%"
		"textAlignment"		"center"
		"dulltext"		"0"
		"brighttext"		"0"
		"wrap"			"0"
		"font"			"BigNoodleTitling16"
	}	
	"ServerTimeLimitLabelBG"
	{
		"ControlName"		"ImagePanel"
		"fieldName"		"ServerTimeLimitLabelBG"
		"xpos"			"25"
		"ypos"			"25"
		"zpos"			"-1"
		"wide"			"50"
		"tall"			"16"
		"visible"		"1"
		"enabled"		"1"
		"fillcolor"		"0 0 0 100"
	}	
}
