"Resource/UI/HudObjectiveKothTimePanel.res"
{	
	"BlueTimer"
	{
		"ControlName"		"ImagePanel"
		"fieldName"			"BlueTimer"
		"xpos"				"0"
		"ypos"				"0"
		"zpos"				"2"
		"wide"				"100"
		"tall"				"50"
		"visible"			"1"
		"enabled"			"1"
		
		"TimePanelValue"
		{
			"ControlName"	"CExLabel"
			"fieldName"		"TimePanelValue"
			"font"			"BigNoodleTitling28"
			"fgcolor"		"TanLight"
			"xpos"			"28"
			"ypos"			"-6"
			"zpos"			"3"
			"wide"			"45"
			"tall"			"31"
			"visible"		"1"
			"enabled"		"1"
			"textAlignment"	"center"
			"labelText"		"0:00"
		}	
	}

	"RedTimer"
	{
		"ControlName"		"ImagePanel"
		"fieldName"			"RedTimer"
		"xpos"				"50"
		"ypos"				"0"
		"zpos"				"2"
		"wide"				"100"
		"tall"				"150"
		"visible" 			"1"
		"enabled" 			"1"
		"delta_item_x" 		"0"
		"delta_item_start_y""50"
		"delta_item_end_y" 	"70"
		"PositiveColor" 	"0 255 0 255"
		"NegativeColor" 	"255 0 0 255"
		"delta_lifetime" 	"1.5"
		"delta_item_font" 	"Cerbetica22"
		
		"TimePanelValue"
		{
			"ControlName"		"CExLabel"
			"fieldName"			"TimePanelValue"
			"font"				"BigNoodleTitling28"
			"fgcolor"			"TanLight"
			"xpos"				"28"
			"ypos"				"-6"
			"zpos"				"3"
			"wide"				"45"
			"tall"				"31"
			"visible"			"1"
			"enabled"			"1"
			"delta_item_x" 		"22"
			"delta_item_start_y""50"
			"delta_item_end_y" 	"70"
			"PositiveColor" 	"0 255 0 255"
			"NegativeColor" 	"255 0 0 255"
			"delta_lifetime" 	"1.5"
			"delta_item_font" 	"Cerbetica20"
			"textAlignment"		"center"
			"labelText"			"0:00"
		}	
	}
	
	"ActiveTimerBG"
	{
		"ControlName"		"ImagePanel"
		"fieldName"			"ActiveTimerBG"
		"xpos"				"15"
		"ypos"				"0"
		"zpos"				"0"
		"wide"				"50"
		"tall"				"20"
		"visible"			"1"
		"enabled"			"1"
		"fillcolor"			"LightGray"
	}
}
