"Resource/UI/HudPlayerHealth.res"
{	
	// player health data
	"HudPlayerHealth"
	{
		"ControlName"	"EditablePanel"
		"fieldName"		"HudPlayerHealth"
		"xpos"			"c-298"		
		"ypos"			"c45"	
		"xpos"			"32"
		"zpos"			"2"
		"wide"			"600"
		"tall"			"200"
		"visible"		"1"
		"enabled"		"1"	
		"HealthBonusPosAdj"	"35"
		"HealthDeathWarning"	"0.49"
		"HealthDeathWarningColor"	"HUDDeathWarning"
	}
	"PlayerStatusHealthImage"
	{
		"ControlName"	"ImagePanel"
		"fieldName"		"PlayerStatusHealthImage"
		"xpos"			"c"
		"ypos"			"c"
		"zpos"			"999"
		"wide"			"70"
		"tall"			"70"
		"visible"		"0"
		"enabled"		"0"
		"scaleImage"	"1"
		"alpha"			"0"
	}		
	"PlayerStatusHealthImageBG"
	{
		"ControlName"	"ImagePanel"
		"fieldName"		"PlayerStatusHealthImageBG"
		"xpos"			"9999"
		"ypos"			"9999"
		"zpos"			"3"
		"wide"			"30"
		"tall"			"30"
		"visible"		"0"
		"enabled"		"0"
		"image"			"../hud/health_bg"
		"scaleImage"	"1"
		"fgcolor_override"	"TanLight"
	}	
	"PlayerStatusHealthBonusImage"
	{
		"ControlName"	"ImagePanel"
		"fieldName"		"PlayerStatusHealthBonusImage"
		"xpos"			"442"
		"ypos"			"57"
		"zpos"			"2"
		"wide"			"68"	
		"tall"			"68"	
		"visible"		"0"
		"enabled"		"1"
		"image"			"../hud/health_over_bg"
		"scaleImage"	"1"	
	}
	"HealthBG"
	{
		"ControlName"	"CTFImagePanel"
		"fieldName"		"HealthBG"
		"xpos"			"115"
		"ypos"			"65"
		"zpos"			"-5"
		"wide"			"100"
		"tall"			"50"
		"visible"		"0"
		"enabled"		"1"
		"image"			"../HUD/tournament_panel_brown"
		"scaleimage"	"1"
		"teambg_2"		"../hud/color_panel_red"
		"teambg_2_lodef"	"../hud/color_panel_red"
		"teambg_3"		"../hud/color_panel_blu"
		"teambg_3_lodef"	"../hud/color_panel_blu"
		"src_corner_height" "20"
		"src_corner_width" "20"
		"draw_corner_width" "0"
		"draw_corner_height" "0"
	}
		
		
	"PlayerStatusHealthValue"
	{
		"ControlName"	"CExLabel"
		"fieldName"		"PlayerStatusHealthValue"
		"xpos"			"325"
		"ypos"			"40"
		"zpos"			"6"
		"wide"			"300"
		"tall"			"100"
		"visible"		"1"
		"enabled"		"1"
		"labelText"		"%Health%"
		"textAlignment"	"center"	
		"font"			"BigNoodleTitling48"
		"fgcolor"		"Health Normal"
	}
	"PlayerStatusHealthValueShadow"
	{
		"ControlName"	"CExLabel"
		"fieldName"		"PlayerStatusHealthValueShadow"
		"xpos"			"327"
		"ypos"			"42"
		"zpos"			"6"
		"wide"			"300"
		"tall"			"100"
		"visible"		"1"
		"enabled"		"1"
		"labelText"		"%Health%"
		"textAlignment"	"center"	
		"font"			"BigNoodleTitling48"
		"fgcolor"		"TransparentBlack"
	}		
	"PlayerStatusBleedImage"
	{
		"ControlName"	"ImagePanel"
		"fieldName"		"PlayerStatusBleedImage"
		"xpos"			"0"
		"ypos"			"20"
		"zpos"			"7"
		"wide"			"32"
		"tall"			"32"
		"visible"		"0"
		"enabled"		"0"
		"scaleImage"	"1"	
		"image"			"../vgui/bleed_drop"
		"fgcolor"		"TanDark"
	}		
	"PlayerStatusMilkImage"
	{
		"ControlName"	"ImagePanel"
		"fieldName"		"PlayerStatusMilkImage"
		"xpos"			"0"
		"ypos"			"20"
		"zpos"			"7"
		"wide"			"32"
		"tall"			"32"
		"visible"		"0"
		"enabled"		"0"
		"scaleImage"	"1"	
		"image"			"../vgui/bleed_drop"
		"fgcolor"		"TanDark"
	}
	"PlayerStatusMarkedForDeathImage"
	{
		"ControlName"	"ImagePanel"
		"fieldName"		"PlayerStatusMarkedForDeathImage"
		"xpos"			"0"
		"ypos"			"-100"
		"zpos"			"7"
		"wide"			"32"
		"tall"			"32"
		"visible"		"1"
		"enabled"		"1"
		"scaleImage"	"1"	
		"image"			"../vgui/marked_for_death"
		"fgcolor"		"TanDark"
	}
	"PlayerStatusMarkedForDeathSilentImage"
	{
		"ControlName"	"ImagePanel"
		"fieldName"		"PlayerStatusMarkedForDeathSilentImage"
		"xpos"			"0"
		"ypos"			"20"
		"zpos"			"7"
		"wide"			"32"
		"tall"			"32"
		"visible"		"1"
		"enabled"		"1"
		"scaleImage"	"1"	
		"image"			"../vgui/marked_for_death"
		"fgcolor"		"TanDark"	
	}
	
	"PlayerStatus_MedicUberBulletResistImage"
	{
		"ControlName" 	"ImagePanel"
		"fieldName" 	"PlayerStatus_MedicUberBulletResistImage"
		"xpos" 			"100"
		"ypos" 			"20"
		"zpos" 			"7"
		"wide" 			"31"
		"tall" 			"31"
		"visible" 		"1"
		"enabled" 		"1"
		"scaleImage" 	"1"
		"image"			"../HUD/defense_buff_bullet_blue"
		"fgcolor" 		"TanDark"
	}	
	
	"PlayerStatus_MedicUberBlastResistImage"
	{
		"ControlName" 	"ImagePanel"
		"fieldName" 	"PlayerStatus_MedicUberBlastResistImage"
		"xpos" 			"100"
		"ypos" 			"20"
		"zpos" 			"7"
		"wide" 			"31"
		"tall" 			"31"
		"visible" 		"1"
		"enabled" 		"1"
		"scaleImage" 	"1"
		"image"			"../HUD/defense_buff_explosion_blue"
		"fgcolor" 		"TanDark"
	}	
	
	"PlayerStatus_MedicUberFireResistImage"
	{
		"ControlName" 	"ImagePanel"
		"fieldName" 	"PlayerStatus_MedicUberFireResistImage"
		"xpos" 			"100"
		"ypos" 			"20"
		"zpos" 			"7"
		"wide" 			"31"
		"tall" 			"31"
		"visible" 		"1"
		"enabled" 		"1"
		"scaleImage" 	"1"
		"image"			"../HUD/defense_buff_fire_blue"
		"fgcolor" 		"TanDark"
	}
	
	"PlayerStatus_MedicSmallBulletResistImage"
	{
		"ControlName" 	"ImagePanel"
		"fieldName" 	"PlayerStatus_MedicSmallBulletResistImage"
		"xpos" 			"100"
		"ypos" 			"20"
		"zpos" 			"7"
		"wide" 			"31"
		"tall" 			"31"
		"visible" 		"1"
		"enabled" 		"1"
		"scaleImage" 	"1"
		"image"			"../HUD/defense_buff_bullet_blue"
		"fgcolor" 		"TanDark"
	}	
	
	"PlayerStatus_MedicSmallBlastResistImage"
	{
		"ControlName" 	"ImagePanel"
		"fieldName" 	"PlayerStatus_MedicSmallBlastResistImage"
		"xpos" 			"100"
		"ypos" 			"20"
		"zpos" 			"7"
		"wide" 			"31"
		"tall" 			"31"
		"visible" 		"1"
		"enabled" 		"1"
		"scaleImage" 	"1"
		"image"			"../HUD/defense_buff_explosion_blue"
		"fgcolor" 		"TanDark"
	}	
	
	"PlayerStatus_MedicSmallFireResistImage"
	{
		"ControlName" 	"ImagePanel"
		"fieldName" 	"PlayerStatus_MedicSmallFireResistImage"
		"xpos" 			"100"
		"ypos" 			"20"
		"zpos" 			"7"
		"wide" 			"31"
		"tall" 			"31"
		"visible" 		"1"
		"enabled" 		"1"
		"scaleImage" 	"1"
		"image"			"../HUD/defense_buff_fire_blue"
		"fgcolor" 		"TanDark"
	}
	
		"PlayerStatus_WheelOfDoom"
	{
		"ControlName"	"ImagePanel"
		"fieldName"		"PlayerStatus_WheelOfDoom"
		"xpos"			"100"
		"ypos"			"20"
		"zpos"			"7"
		"wide"			"32"
		"tall"			"32"
		"visible"		"1"
		"enabled"		"1"
		"scaleImage"	"1"	
		"image"			"../signs/death_wheel_whammy"
		"fgcolor"		"TanDark"
	}	
	
	"PlayerStatus_SoldierOffenseBuff"
	{
		"ControlName"	"ImagePanel"
		"fieldName"		"PlayerStatus_SoldierOffenseBuff"
		"xpos"			"85"
		"xpos_minmode"	"70"
		"ypos"			"20"
		"zpos"			"7"
		"wide"			"31"
		"tall"			"31"
		"visible"		"1"
		"enabled"		"1"
		"scaleImage"	"1"	
		"image"			"../HUD/defense_buff_bullet_blue"
		"fgcolor"		"TanDark"
	}

	"PlayerStatus_SoldierDefenseBuff"
	{
		"ControlName"	"ImagePanel"
		"fieldName"		"PlayerStatus_SoldierDefenseBuff"
		"xpos"			"85"
		"xpos_minmode"	"70"
		"ypos"			"20"
		"zpos"			"7"
		"wide"			"31"
		"tall"			"31"
		"visible"		"1"
		"enabled"		"1"
		"scaleImage"	"1"	
		"image"			"../HUD/defense_buff_bullet_blue"
		"fgcolor"		"TanDark"
	}

	"PlayerStatus_SoldierHealOnHitBuff"
	{
		"ControlName"	"ImagePanel"
		"fieldName"		"PlayerStatus_SoldierHealOnHitBuff"
		"xpos"			"85"
		"xpos_minmode"	"70"
		"ypos"			"20"
		"zpos"			"7"
		"wide"			"31"
		"tall"			"31"
		"visible"		"1"
		"enabled"		"1"
		"scaleImage"	"1"	
		"image"			"../HUD/defense_buff_bullet_blue"
		"fgcolor"		"TanDark"
	}
	"PlayerStatus_Parachute"
	{
		"ControlName"	"ImagePanel"
		"fieldName"		"PlayerStatus_Parachute"
		"xpos"			"0"
		"xpos_minmode"	"0"
		"ypos"			"20"
		"zpos"			"7"
		"wide"			"31"
		"tall"			"31"
		"visible"		"0"
		"enabled"		"1"
		"scaleImage"	"1"	
		"image"			""
		"fgcolor"		"TanDark"
	}
}
