"Resource/UI/MainMenuOverride.res"

//////////////////////////////////////////////////////
//CTRL+F FOR "FAVORITESERVER" TO CHANGE SERVER LINKS//
//////////////////////////////////////////////////////

{

	MainMenuOverride
	{
		"fieldName"		"MainMenuOverride"
		"visible"		"1"
		"enabled"		"1"
		"xpos"			"0"
		"ypos"			"0"
		"zpos"			"0"
		"wide"			"f0"
		"tall"			"f0"
		
	//	"bgcolor_override"	"0 0 0 100"
		
		"update_url"	"http://store.steampowered.com/news/?filter=updates&appids=440"
		"blog_url"		"http://www.teamfortress.com/"
		
		"button_x_offset"	"-100"
		"button_y"			"120"
		"button_y_delta"	"5"
		"button_kv"
		{
			"xpos"			"0"
			"ypos"			"150"
			"wide"			"250"
			"tall"			"26"
			"visible"		"1"

			"SubButton"
			{
				"ControlName"	"CExImageButton"
				"fieldName"		"SubButton"
				"xpos"			"0"
				"ypos"			"0"
				"wide"			"250"
				"tall"			"20"
				"autoResize"	"0"
				"pinCorner"		"3"
				"visible"		"1"
				"enabled"		"1"
				"tabPosition"	"0"
				"textinsetx"	"25"
				"use_proportional_insets" "1"
				"font"			"BigNoodleTitling16"
				"textAlignment"	"west"
				"dulltext"		"0"
				"brighttext"	"0"
				"default"		"1"
				"sound_depressed"	"UI/buttonclick.wav"
				"sound_released"	"UI/buttonclickrelease.wav"
				
				"border_default"	""
				"border_armed"		"MenuButtonBorder"
				"paintbackground"	"0"
				
				"defaultFgColor_override" "TanLight"
				"armedFgColor_override" "MenuMouseover"
				"depressedFgColor_override" "MenuMouseover"
				
				"image_drawcolor"	"TanLight"
				"image_armedcolor"	"MenuMouseover"
				"image_depressedcolor" "MenuMouseover"
				
				"SubImage"
				{
					"ControlName"	"ImagePanel"
					"fieldName"		"SubImage"
					"xpos"			"10"
					"ypos"			"5"
					"zpos"			"1"
					"wide"			"11"
					"tall"			"11"
					"visible"		"1"
					"enabled"		"1"
					"scaleImage"	"1"
				}				
			}		
		}
		//solid color background
		//choose color in clientscheme.res
		
		"MainBackground"
		{
			"ControlName"	"ImagePanel"
			"fieldName"		"MainBackground"
			"xpos"			"0"
			"ypos"			"0"
			"zpos"			"0"
			"wide"			"f0"
			"tall"			"480"
			"visible"		"0"	//change this to 1 to enable
			"enabled"		"1"
			"fillcolor"		"MainMenuBG"
		}
		

		"SaxxySettings"
		{
			"xpos"			"0"
			"ypos"			"0"
			"zpos"			"-101"		
			"wide"			"f0"
			"tall"			"480"
			
			"autoResize"	"0"
			"pinCorner"		"0"
			"visible"		"1"
			"enabled"		"1"
			
			"flashbounds_x"	"50"
			"flashbounds_y"	"65"
			"flashbounds_w"	"250"
			"flashbounds_h"	"120"
			
			"flashstartsize_min"	"8"
			"flashstartsize_max"	"12"
			
			"flash_maxscale"		"4"
			
			"flash_lifelength_min"	".1"
			"flash_lifelength_max"	".2"
			
			"curtain_anim_duration"		"4.0"
			"curtain_open_time"		"2.8"
			"flash_start_time"		"4.0"
			
			"initial_freakout_duration"		"15.0"
			"clap_sound_duration"	"10.0"
			
			"CameraFlashSettings"
			{
				"visible"		"1"
				"enabled"		"1"
				"tileImage"		"0"
				"scaleImage"	"1"
				"zpos"			"9"
			}
		}
	}	
	
	"Background"
	{
		"ControlName"	"ImagePanel"
		"fieldName"		"Background"
		"xpos"			"0"
		"ypos"			"0"
		"zpos"			"-200"
		"wide"			"f0"
		"tall"			"480"
		"visible"		"0"
		"enabled"		"1"
		"image"			""
		"scaleImage"	"1"
	}
	"SidePanelBG"
	{
		"ControlName"	"ImagePanel"
		"fieldName"		"SidePanelBG"
		"xpos"			"0"
		"ypos"			"0"
		"zpos"			"0"
		"wide"			"200"
		"tall"			"f0"
		"visible"		"1"
		"enabled"		"1"
		"scaleImage"	"1"
		"fillcolor"		"25 25 25 100"
	}
	"BottomPanelBG"
	{
		"ControlName"	"ImagePanel"
		"fieldName"		"BottomPanelBG"
		"xpos"			"c-65"
		"ypos"			"415"
		"zpos"			"0"
		"wide"			"350"
		"tall"			"100"
		"visible"		"1"
		"enabled"		"1"
		"scaleImage"	"1"
		"fillcolor"		"25 25 25 100"
	}
	"ServersTopStripe"
	{
		"ControlName"	"ImagePanel"
		"fieldName"		"ServersTopStripe"
		"xpos"			"c-63"
		"ypos"			"418"
		"zpos"			"0"
		"wide"			"343"
		"tall"			"2"
		"visible"		"1"
		"enabled"		"1"
		"scaleImage"	"1"
		"fillcolor"		"MenuBorder"
	}
	"ServersLeftStripe"
	{
		"ControlName"	"ImagePanel"
		"fieldName"		"ServersLeftStripe"
		"xpos"			"c-63"
		"ypos"			"418"
		"zpos"			"0"
		"wide"			"2"
		"tall"			"341"
		"visible"		"1"
		"enabled"		"1"
		"scaleImage"	"1"
		"fillcolor"		"MenuBorder"
	}
	"ServersRightStripe"
	{
		"ControlName"	"ImagePanel"
		"fieldName"		"ServersRightStripe"
		"xpos"			"c280"
		"ypos"			"418"
		"zpos"			"0"
		"wide"			"2"
		"tall"			"341"
		"visible"		"1"
		"enabled"		"1"
		"scaleImage"	"1"
		"fillcolor"		"MenuBorder"
	}
	"SidePanelLeftStripe"
	{
		"ControlName"	"ImagePanel"
		"fieldName"		"SidePanelLeftStripe"
		"xpos"			"77"
		"ypos"			"0"
		"zpos"			"0"
		"wide"			"2"
		"tall"			"f0"
		"visible"		"0"
		"enabled"		"0"
		"scaleImage"	"1"
		"fillcolor"		"MenuBorder"
	}
	"SidePanelRightStripe"
	{
		"ControlName"	"ImagePanel"
		"fieldName"		"SidePanelRightStripe"
		"xpos"			"196"
		"ypos"			"0"
		"zpos"			"0"
		"wide"			"2"
		"tall"			"f0"
		"visible"		"1"
		"enabled"		"1"
		"scaleImage"	"1"
		"fillcolor"		"MenuBorder"
	}
	"BottomPanelMain"
	{
		"ControlName"	"ImagePanel"
		"fieldName"		"BottomPanelMain"
		"xpos"			"0"
		"ypos"			"275"
		"zpos"			"-2"
		"wide"			"f0"
		"tall"			"0"
		"visible"		"1"
		"enabled"		"0"
		"scaleImage"	"0"
		"fillcolor"		"25 25 25 255"
	}
	"BottomPanelTopStripe"
	{
		"ControlName"	"ImagePanel"
		"fieldName"		"BottomPanelTopStripe"
		"xpos"			"0"
		"ypos"			"277"
		"zpos"			"-1"
		"wide"			"f0"
		"tall"			"0"
		"visible"		"1"
		"enabled"		"0"
		"scaleImage"	"0"
		"fillcolor"		"MenuBorder"
	}
	"BottomPanelBottomStripe"
	{
		"ControlName"	"ImagePanel"
		"fieldName"		"BottomPanelBottomStripe"
		"xpos"			"0"
		"ypos"			"396"
		"zpos"			"-1"
		"wide"			"f0"
		"tall"			"0"
		"visible"		"1"
		"enabled"		"0"
		"scaleImage"	"0"
		"fillcolor"		"MenuBorder"
	}
	"TFLogoImage"
	{
		"ControlName"	"ImagePanel"
		"fieldName"		"TFLogoImage"
		"xpos"			"40"
		"ypos"			"25"
		"zpos"			"100"
		"wide"			"180"
		"tall"			"50"
		"visible"		"1"
		"enabled"		"1"
		"image"			"replay/thumbnails/tflogo"
		"scaleImage"	"1"
	}	
	
	"TFCharacterImage"
	{
		"ControlName"	"ImagePanel"
		"fieldName"		"TFCharacterImage"
		"xpos"			"9999"
		"ypos"			"9999"
		"zpos"			"-99"
		"wide"			"600"
		"tall"			"600"
		"visible"		"1"
		"enabled"		"1"
		"scaleImage"	"1"
	}
	
	"MainMenuBGPanel"
	{
		"ControlName"	"EditablePanel"
		"fieldName"		"MainMenuBGPanel"
		"xpos"			"9999"
		"ypos"			"9999"
		"zpos"			"-1"
		"wide"			"260"
		"tall"			"120"
		"visible"		"1"
		"pinCorner"		"0"
		"autoResize"	"0"
		"PaintBackgroundType"	"2"
		"border"		"MainMenuBGBorder"
	}	
	"PlayLabel"
	{
		"ControlName"	"CExLabel"
		"fieldName"		"PlayLabel"
		"font"			"BigNoodleTitling16"
		"labelText"		"#MMenu_Play"
		"textAlignment"	"west"
		"xpos"			"9999"
		"ypos"			"9999"
		"wide"			"140"
		"tall"			"30"
		"autoResize"	"0"
		"pinCorner"		"0"
		"visible"		"1"
		"enabled"		"1"
		"fgcolor_override"	"235 227 203 255"
	}
	
	"TooltipPanel"
	{
		"ControlName"	"EditablePanel"
		"fieldName"		"TooltipPanel"
		"xpos"			"9999"
		"ypos"			"9999"
		"zpos"			"1"
		"wide"			"150"
		"tall"			"50"
		"visible"		"0"
		"PaintBackgroundType"	"2"
		"border"		"CyanBorderThick"
		
		"TooltipBG"
		{
			"ControlName"	"ImagePanel"
			"fieldName"		"TooltipBG"
			"xpos"			"0"
			"ypos"			"0"
			"zpos"			"-1"
			"wide"			"150"
			"tall"			"50"
			"visible"		"1"
			"enabled"		"1"
			"fillcolor"		"25 25 25 255"
		}
		
		"TipSubLabel"
		{
			"ControlName"	"CExLabel"
			"fieldName"		"TipSubLabel"
			"font"			"HudFontSmall"
			"labelText"		"%tipsubtext%"
			"textAlignment"	"center"
			"xpos"			"20"
			"ypos"			"30"
			"zpos"			"2"
			"wide"			"250"
			"tall"			"50"
			"autoResize"	"0"
			"pinCorner"		"0"
			"visible"		"1"
			"enabled"		"1"
			"fgcolor_override"	"117 107 94 255"
			"wrap"			"1"
		}
		
		"TipLabel"
		{
			"ControlName"	"CExLabel"
			"fieldName"		"TipLabel"
			"font"			"HudFontSmallBold"
			"labelText"		"%tiptext%"
			"textAlignment"	"center"
			"xpos"			"20"
			"ypos"			"5"
			"zpos"			"2"
			"wide"			"140"
			"tall"			"30"
			"autoResize"	"0"
			"pinCorner"		"0"
			"visible"		"1"
			"enabled"		"1"
			"fgcolor_override"	"235 226 202 255"
			"auto_wide_tocontents" "1"
		}
	}	
	
	"CreateServerButton"
	{
		"ControlName"	"EditablePanel"
		"fieldname"		"CreateServerButton"
		"xpos"			"165"
		"ypos"			"148"
		"zpos"			"12"
		"wide"			"20"
		"tall"			"20"
		"visible"		"1"
		
		"SubButton"
		{
			"ControlName"	"CExImageButton"
			"fieldName"		"SubButton"
			"xpos"			"0"
			"ypos"			"0"
			"wide"			"20"
			"tall"			"20"
			"autoResize"	"0"
			"pinCorner"		"3"
			"visible"		"1"
			"enabled"		"1"
			"tabPosition"	"0"
			"textinsetx"	"100"
			"use_proportional_insets" "1"
			"font"			"BigNoodleTitling16"
			"textAlignment"	"west"
			"dulltext"		"0"
			"brighttext"	"0"
	
			"default"		"0"
			"sound_depressed"	"UI/buttonclick.wav"
			"sound_released"	"UI/buttonclickrelease.wav"
			
			"border_default"	""
			"paintbackground"	"0"
			
			"defaultFgColor_override" "TanLight"
			"armedFgColor_override" "MenuMouseover"
			"depressedFgColor_override" "MenuMouseover"
			
			"image_drawcolor"	"235 226 202 255"
			"image_armedcolor"	"MenuMouseover"
			
			"SubImage"
			{
				"ControlName"	"ImagePanel"
				"fieldName"		"SubImage"
				"xpos"			"0"
				"ypos"			"3"
				"zpos"			"1"
				"wide"			"12"
				"tall"			"12"
				"visible"		"1"
				"enabled"		"1"
				"image"			"glyph_create"
				"scaleImage"	"1"
			}				
		}		
	}
	
	"MOTD_ShowButtonPanel"
	{
		"ControlName"	"EditablePanel"
		"fieldName"		"MOTD_ShowButtonPanel"
		"xpos"			"205"
		"ypos"			"445"
		"zpos"			"1"
		"wide"			"32"
		"tall"			"32"
		"autoResize"	"0"
		"pinCorner"		"3"
		"visible"		"1"
		"enabled"		"1"
		
		"MOTDButton_BG"
		{
			"ControlName"	"ImagePanel"
			"fieldName"		"MOTDButton_BG"
			"xpos"			"0"
			"ypos"			"0"
			"zpos"			"-5"
			"wide"			"30"
			"tall"			"30"
			"visible"		"1"
			"enabled"		"1"
			"fillcolor"		"25 25 25 255"
			"border"		"CyanBorderThick"
		}
		
		
		"MOTD_ShowButtonPanel_SB"
		{
			"ControlName"	"CExImageButton"
			"fieldName"		"MOTD_ShowButtonPanel_SB"
			"xpos"			"1"
			"ypos"			"0"
			"zpos"			"2"
			"wide"			"28"
			"tall"			"28"
			"autoResize"	"0"
			"pinCorner"		"3"
			"visible"		"1"
			"enabled"		"1"
			"tabPosition"	"0"
			"labelText"		"É"
			"font"			"Sosa Regular"
			"textAlignment"	"center"
			"dulltext"		"0"
			"brighttext"	"0"
			"default"		"1"
			"Command"		"motd_show"
			"sound_depressed"	"UI/buttonclick.wav"
			"sound_released"	"UI/buttonclickrelease.wav"
			"paintbackground" "0"
			"image_drawcolor"	"235 226 202 255"
			"image_armedcolor"	"255 255 255 255"

			"SubImage"
			{
				"ControlName"	"ImagePanel"
				"fieldName"		"SubImage"
				"xpos"			"0"
				"ypos"			"0"
				"zpos"			"1"
				"wide"			"30"
				"tall"			"30"
				"visible"		"0"
				"enabled"		"1"
				"image"			"button_MOTD"
				"scaleImage"	"1"
			}
		}
	}
	
	"MOTD_Panel"
	{
		"ControlName"	"EditablePanel"
		"fieldName"		"MOTD_Panel"
		"xpos"			"c0"
		"ypos"			"28"
		"zpos"			"1"
		"wide"			"300"
		"tall"			"320"
		"visible"		"0"
		"PaintBackgroundType"	"2"
		"paintbackground"	"0"
		"border"		"CyanBorderThick"
		
		"MOTD_BG"
		{
			"ControlName"	"ImagePanel"
			"fieldName"		"MOTD_BG"
			"xpos"			"0"
			"ypos"			"0"
			"zpos"			"-5"
			"wide"			"300"
			"tall"			"360"
			"visible"		"1"
			"enabled"		"1"
			"fillcolor"		"25 25 25 255"
		}
		
		"MOTD_HeaderBG"
		{
			"ControlName"	"ImagePanel"
			"fieldName"		"MOTD_HeaderBG"
			"xpos"			"0"
			"ypos"			"0"
			"zpos"			"-5"
			"wide"			"300"
			"tall"			"22"
			"visible"		"1"
			"enabled"		"1"
			"fillcolor"		"15 15 15 255"
		}
		
		"MOTD_HeaderContainer"
		{
			"ControlName"	"EditablePanel"
			"fieldName"		"MOTD_HeaderContainer"
			"xpos"			"0"
			"ypos"			"0"
			"wide"			"300"
			"tall"			"22"
			"visible"		"0"
			
			"MOTD_HeaderLabel"
			{
				"ControlName"	"CExLabel"
				"fieldName"		"MOTD_HeaderLabel"
				"font"			"HudFontSmallBold"
				"textAlignment"	"center"
				"labelText"		"%motdheader%"
				"xpos"			"0"
				"ypos"			"0"
				"wide"			"300"
				"tall"			"24"
				"autoResize"	"0"
				"pinCorner"		"0"
				"visible"		"1"
				"enabled"		"1"
				"PaintBackgroundType" "2"
				"fgcolor_override"	"235 226 202 255"
				"bgcolor_override"	"46 43 42 255"
			}
		}
		
		"MOTD_CloseButton"
		{
			"ControlName"	"CExImageButton"
			"fieldName"		"MOTD_CloseButton"
			"xpos"			"282"
			"ypos"			"5"
			"zpos"			"10"
			"wide"			"14"
			"tall"			"14"
			"autoResize"	"0"
			"pinCorner"		"0"
			"visible"		"1"
			"enabled"		"1"
			"tabPosition"	"0"
			"textinsety"	"0"
			"labeltext"		"ã"
			"font"			"Sosa Small"
			"textAlignment"	"center"
			"dulltext"		"0"
			"brighttext"	"0"
			"default"		"0"

			"sound_depressed"	"UI/buttonclick.wav"
			"sound_released"	"UI/buttonclickrelease.wav"
			"Command"		"motd_hide"
			
			"paintbackground"	"0"
			
			//"defaultFgColor_override" "235 226 202 255"
			//"armedFgColor_override" "46 43 42 255"
			"defaultFgColor_override" "235 226 202 255"
			"armedFgColor_override" "200 80 60 255"
			"depressedFgColor_override" "200 80 60 255"
			
			"image_drawcolor"	"235 226 202 255"
			"image_armedcolor"	"200 80 60 255"
			"SubImage"
			{
				"ControlName"	"ImagePanel"
				"fieldName"		"SubImage"
				"xpos"			"0"
				"ypos"			"0"
				"zpos"			"1"
				"wide"			"14"
				"tall"			"14"
				"visible"		"0"
				"enabled"		"0"
				"image"			"close_button"
				"scaleImage"	"1"
			}				
		}	

		"MOTD_HeaderIcon"
		{
			"ControlName"	"ImagePanel"
			"fieldName"		"MOTD_HeaderIcon"
			"xpos"			"265"
			"ypos"			"25"
			"zpos"			"100"
			"wide"			"25"
			"tall"			"25"
			"visible"		"0"
			"enabled"		"0"
			"image"			"class_icons/filter_all_motd"
			"scaleImage"	"1"
		}
			
		"MOTD_TitleLabel"
		{
			"ControlName"	"CExLabel"
			"fieldName"		"MOTD_TitleLabel"
			"font"			"HudFontSmall"
			"labelText"		"%motdtitle%"
			"textAlignment"	"west"
			"xpos"			"10"
			"ypos"			"4"
			"wide"			"250"
			"tall"			"15"
			"autoResize"	"0"
			"pinCorner"		"0"
			"visible"		"1"
			"enabled"		"1"
			"fgcolor_override"	"235 226 202 255"
			"wrap"			"1"
		}
		
		"MOTD_Label"
		{
			"ControlName"	"CExLabel"
			"fieldName"		"MOTD_Label"
			"font"			"WeblySleek10"
			"labelText"		"%motddate%"
			"textAlignment"	"east"
			"xpos"			"-50"
			"ypos"			"5"
			"wide"			"300"
			"tall"			"15"
			"autoResize"	"0"
			"pinCorner"		"0"
			"visible"		"1"
			"enabled"		"1"
			"fgcolor_override"	"235 226 202 255"
		}
		
	
		
		"MOTD_TitleImageContainer"
		{
			"ControlName"	"EditablePanel"
			"fieldName"		"MOTD_TitleImageContainer"
			"xpos"			"10"
			"ypos"			"55"
			"zpos"			"100"
			"wide"			"280"
			"tall"			"180"
			"visible"		"1"
			
			"MOTD_TitleImage"
			{
				"ControlName"	"ImagePanel"
				"fieldName"		"MOTD_TitleImage"
				"xpos"			"0"
				"ypos"			"0"
				"zpos"			"100"
				"wide"			"280"
				"tall"			"280"
				"visible"		"1"
				"enabled"		"1"
				"image"			"class_icons/filter_all"
				"scaleImage"	"0"
			}
		}
			
		"MOTD_TextScroller"
		{
			"ControlName"	"ScrollableEditablePanel"
			"fieldName"		"MOTD_TextScroller"
			"xpos"			"10"
			"ypos"			"240"
			"wide"			"300"
			"tall"			"95"
			"PaintBackgroundType"	"2"
			"fgcolor_override"	"235 226 202 255"
			
			"MOTD_TextPanel"
			{
				"ControlName"	"EditablePanel"
				"fieldName"		"MOTD_TextPanel"
				"xpos"			"0"
				"ypos"			"0"
				"wide"			"250"
				"tall"			"300"
				"visible"		"1"
				"PaintBackgroundType"	"2"
			
				"MOTD_TextLabel"
				{
					"ControlName"	"CExLabel"
					"fieldName"		"MOTD_TextLabel"
					"font"			"WeblySleek12"
					"labelText"		"%motdtext%"
					"textAlignment"	"north-west"
					"xpos"			"0"
					"ypos"			"0"
					"wide"			"230"
					"tall"			"300"
					"autoResize"	"0"
					"pinCorner"		"0"
					"visible"		"1"
					"enabled"		"1"
					"fgcolor_override"	"235 226 202 255"
					"wrap"			"1"
				}
			}
		}
		
		"MOTD_URLButton"
		{
			"ControlName"	"CExButton"
			"fieldName"		"MOTD_URLButton"
			"xpos"			"75"
			"ypos"			"339"
			"wide"			"150"
			"tall"			"15"
			"autoResize"	"0"
			"pinCorner"		"3"
			"visible"		"1"
			"enabled"		"1"
			"tabPosition"	"0"
			"labelText"		"#MMenu_MOTD_URL"
			"textinsetx"	"20"
			"use_proportional_insets" "1"
			"font"			"HudFontSmallestBold"
			"textAlignment"	"center"
			"dulltext"		"0"
			"brighttext"	"0"
			"default"		"1"
			"command"		"motd_viewurl"

			"sound_depressed"	"UI/buttonclick.wav"
			"sound_released"	"UI/buttonclickrelease.wav"
			
			"defaultFgColor_override" "235 226 202 255"
			"defaultBgColor_override" "46 43 42 255"
			"armedFgColor_override" "235 226 202 255"
			"depressedFgColor_override" "235 226 202 255"
		}	
	}	
	
	"Notifications_ShowButtonPanel"
	{
		"ControlName"	"EditablePanel"
		"fieldName"		"Notifications_ShowButtonPanel"
		"xpos"			"205"
		"ypos"			"410"
		"zpos"			"1"
		"wide"			"50"
		"tall"			"50"
		"autoResize"	"0"
		"pinCorner"		"3"
		"visible"		"1"
		"enabled"		"1"
		
		"NotButton_BG"
		{
			"ControlName"	"ImagePanel"
			"fieldName"		"NotButton_BG"
			"xpos"			"0"
			"ypos"			"0"
			"zpos"			"-5"
			"wide"			"30"
			"tall"			"30"
			"visible"		"1"
			"enabled"		"1"
			"fillcolor"		"25 25 25 255"
			"border"		"CyanBorderThick"
		}
		
		"SubImage"
		{
			"ControlName"	"ImagePanel"
			"fieldName"		"SubImage"
			"xpos"			"9999"
			"ypos"			"9999"
			"zpos"			"3"
			"wide"			"30"
			"tall"			"30"
			"visible"		"1"
			"enabled"		"1"
			"image"			"glyph_achievements"
			"scaleImage"	"1"
			"drawcolor" "255 255 255 255"
		}				
		
		"Notifications_CountLabel"
		{
			"ControlName"	"CExLabel"
			"fieldName"		"Notifications_CountLabel"
			"font"			"BigNoodleTitling24"
			"labelText"		"%noticount%"
			"textAlignment"	"center"
			"xpos"			"22"
			"ypos"			"4"
			"zpos"			"4"
			"wide"			"24"
			"tall"			"24"
			"autoResize"	"0"
			"pinCorner"		"0"
			"visible"		"1"
			"enabled"		"1"
			"fgcolor_override"	"MenuBorder"
		}
		"Notifications_CountLabelBG"
		{
			"ControlName"	"CExLabel"
			"fieldName"		"Notifications_CountLabelBG"
			"font"			"BigNoodleTitling24"
			"labelText"		"%noticount%"
			"textAlignment"	"center"
			"xpos"			"23"
			"ypos"			"5"
			"zpos"			"4"
			"wide"			"24"
			"tall"			"24"
			"autoResize"	"0"
			"pinCorner"		"0"
			"visible"		"1"
			"enabled"		"1"
			"fgcolor_override"	"0 0 0 255"
		}
	
		"Notifications_ShowButtonPanel_SB"
		{
			"ControlName"	"CExImageButton"
			"fieldName"		"Notifications_ShowButtonPanel_SB"
			"xpos"			"1"
			"ypos"			"-1"
			"zpos"			"1"
			"wide"			"28"
			"tall"			"28"
			"autoResize"	"0"
			"pinCorner"		"3"
			"visible"		"1"
			"enabled"		"1"
			"tabPosition"	"0"
			"labelText"		"Ä"
			"font"			"Sosa Regular"
			"textAlignment"	"center"
			"dulltext"		"0"
			"brighttext"	"0"
			"default"		"1"
			"Command"		"noti_show"
			"sound_depressed"	"UI/buttonclick.wav"
			"sound_released"	"UI/buttonclickrelease.wav"
			"paintbackground" "0"
			"image_drawcolor"	"235 226 202 255"
			"image_armedcolor"	"255 255 255 255"
			
			"SubImage"
			{
				"ControlName"	"ImagePanel"
				"fieldName"		"SubImage"
				"xpos"			"0"
				"ypos"			"0"
				"zpos"			"1"
				"wide"			"30"
				"tall"			"30"
				"visible"		"0"
				"enabled"		"0"
				"image"			"button_Alert"
				"scaleImage"	"1"
			}
		}
	}
	
	"Notifications_Panel"
	{
		"ControlName"	"EditablePanel"
		"fieldName"		"Notifications_Panel"
		"xpos"			"c0"
		"ypos"			"102"
		"zpos"			"1"
		"wide"			"210"
		"tall"			"80"
		"visible"		"0"
		"PaintBackgroundType"	"2"
		"paintbackground"	"0"
		"border"		"MainMenuHighlightBorder"
		
		"Notifications_CloseButton"
		{
			"ControlName"	"CExImageButton"
			"fieldName"		"Notifications_CloseButton"
			"xpos"			"186"
			"ypos"			"8"
			"zpos"			"10"
			"wide"			"14"
			"tall"			"14"
			"autoResize"	"0"
			"pinCorner"		"0"
			"visible"		"1"
			"enabled"		"1"
			"tabPosition"	"0"
			"labeltext"		""
			"font"			"HudFontSmallBold"
			"textAlignment"	"center"
			"dulltext"		"0"
			"brighttext"	"0"
			"default"		"0"
			"sound_depressed"	"UI/buttonclick.wav"
			"sound_released"	"UI/buttonclickrelease.wav"
			"Command"		"noti_hide"
			
			"paintbackground"	"0"
			
			"defaultFgColor_override" "TanLight"
			"armedFgColor_override" "MenuMouseover"
			"depressedFgColor_override" "MenuMouseover"
			
			"image_drawcolor"	"TanLight"
			"image_armedcolor"	"MenuMouseover"
			"SubImage"
			{
				"ControlName"	"ImagePanel"
				"fieldName"		"SubImage"
				"xpos"			"0"
				"ypos"			"0"
				"zpos"			"1"
				"wide"			"14"
				"tall"			"14"
				"visible"		"1"
				"enabled"		"1"
				"image"			"close_button"
				"scaleImage"	"1"
			}				
		}		
	
		"Notifications_TitleLabel"
		{
			"ControlName"	"CExLabel"
			"fieldName"		"Notifications_TitleLabel"
			"font"			"HudFontSmallBold"
			"labelText"		"%notititle%"
			"textAlignment"	"north-west"
			"xpos"			"12"
			"ypos"			"8"
			"wide"			"250"
			"tall"			"20"
			"autoResize"	"0"
			"pinCorner"		"0"
			"visible"		"1"
			"enabled"		"1"
			"fgcolor_override"	"46 43 42 255"
			"wrap"			"1"
		}
		
		"Notifications_Scroller"
		{
			"ControlName"	"ScrollableEditablePanel"
			"fieldName"		"Notifications_Scroller"
			"xpos"			"8"
			"ypos"			"25"
			"wide"			"210"
			"tall"			"135"
			"PaintBackgroundType"	"2"
			"fgcolor_override"	"117 107 94 255"
			
			"Notifications_Control"
			{
				"ControlName"	"CMainMenuNotificationsControl"
				"fieldName"		"Notifications_Control"
				"xpos"			"0"
				"ypos"			"0"
				"wide"			"220"
				"tall"			"135"
				"visible"		"1"
			}
		}
	}	
	
	"HTMLContainer"
	{
		"ControlName"	"EditablePanel"
		"fieldName"		"HTMLContainer"
		"xpos"			"c"
		"ypos"			"130"
		"wide"			"300"
		"tall"			"240"
		"autoResize"	"3"
		"pinCorner"		"0"
		"visible"		"0"
		"enabled"		"1"
		"tabPosition"	"0"
		"border"		"MainMenuBGBorder"

		"HTMLLabel"
		{
			"ControlName"	"CExLabel"
			"fieldName"		"HTMLLabel"
			"font"			"HudFontSmallestBold"
			"labelText"		"#MMenu_HTML"
			"textAlignment"	"north-west"
			"xpos"			"5"
			"ypos"			"5"
			"wide"			"290"
			"tall"			"15"
			"autoResize"	"0"
			"pinCorner"		"0"
			"visible"		"1"
			"enabled"		"1"
		}

		"HTML"
		{
			"ControlName"	"HTML"
			"fieldName"		"HTML"
			"xpos"			"5"
			"ypos"			"25"
			"wide"			"290"
			"tall"			"210"
			"autoResize"	"3"
			"pinCorner"		"0"
			"visible"		"1"
			"enabled"		"1"
			"tabPosition"	"0"
		}
	}
	
	"TrainingButton"
	{
		"ControlName"	"EditablePanel"
		"fieldname"		"TrainingButton"
		"xpos"			"-5"
		"ypos"			"202"
		"zpos"			"11"
		"wide"			"200"
		"tall"			"16"
		"visible"		"1"
		"PaintBackgroundType"	"2"
		"SubButton"
		{
			"ControlName"	"CExImageButton"
			"fieldName"		"SubButton"
			"xpos"			"0"
			"ypos"			"0"
			"wide"			"200"
			"tall"			"16"
			"autoResize"	"0"
			"pinCorner"		"3"
			"visible"		"1"
			"enabled"		"1"
			"tabPosition"	"0"
			"textinsetx"	"25"
			"use_proportional_insets" "1"
			"labelText"		"Training"
			"font"			"BigNoodleTitling16"
			"textAlignment"	"west"
			"dulltext"		"0"
			"brighttext"	"0"
			"default"		"1"
			"sound_depressed"	"UI/buttonclick.wav"
			"sound_released"	"UI/buttonclickrelease.wav"
			
			"border_default"	""
			"border_armed"		"MenuButtonBorder"
			"paintbackground"	"0"
			
			"defaultFgColor_override" "TanLight"
			"armedFgColor_override" "MenuMouseover"
			"depressedFgColor_override" "MenuMouseover"
			
			"image_drawcolor"	"TanLight"
			"image_armedcolor"	"MenuMouseover"
			"SubImage"
			{
				"ControlName"	"ImagePanel"
				"fieldName"		"SubImage"
				"xpos"			"6"
				"ypos"			"5"
				"zpos"			"1"
				"wide"			"11"
				"tall"			"11"
				"visible"		"1"
				"enabled"		"1"
				"scaleImage"	"1"
			}		
		}
	}
	"ReplayBrowserButton"
	{
		"ControlName"	"EditablePanel"
		"fieldname"		"ReplayBrowserButton"
		"xpos"			"-5"
		"ypos"			"290"
		"zpos"			"11"
		"wide"			"200"
		"tall"			"16"
		"visible"		"1"
		"PaintBackgroundType"	"2"
		"SubButton"
		{
			"ControlName"	"CExImageButton"
			"fieldName"		"SubButton"
			"xpos"			"0"
			"ypos"			"0"
			"wide"			"200"
			"tall"			"16"
			"autoResize"	"0"
			"pinCorner"		"3"
			"visible"		"1"
			"enabled"		"1"
			"tabPosition"	"0"
			"textinsetx"	"25"
			"use_proportional_insets" "1"
			"font"			"BigNoodleTitling16"
			"textAlignment"	"west"
			"dulltext"		"0"
			"brighttext"	"0"
			"default"		"1"
			"sound_depressed"	"UI/buttonclick.wav"
			"sound_released"	"UI/buttonclickrelease.wav"
			
			"border_default"	""
			"border_armed"		"MenuButtonBorder"
			"paintbackground"	"0"
			
			"defaultFgColor_override" "TanLight"
			"armedFgColor_override" "MenuMouseover"
			"depressedFgColor_override" "MenuMouseover"
			
			"image_drawcolor"	"TanLight"
			"image_armedcolor"	"MenuMouseover"
			"SubImage"
			{
				"ControlName"	"ImagePanel"
				"fieldName"		"SubImage"
				"xpos"			"6"
				"ypos"			"6"
				"zpos"			"1"
				"wide"			"14"
				"tall"			"14"
				"visible"		"1"
				"enabled"		"1"
				"scaleImage"	"1"
			}		
		}
	}
	"SteamWorkshopButton"
	{
		"ControlName"	"EditablePanel"
		"fieldname"		"SteamWorkshopButton"
		"xpos"			"-5"
		"ypos"			"308"
		"zpos"			"11"
		"wide"			"200"
		"tall"			"16"
		"visible"		"1"
		"PaintBackgroundType"	"2"
		"SubButton"
		{
			"ControlName"	"CExImageButton"
			"fieldName"		"SubButton"
			"xpos"			"0"
			"ypos"			"0"
			"wide"			"200"
			"tall"			"16"
			"autoResize"	"0"
			"pinCorner"		"3"
			"visible"		"1"
			"enabled"		"1"
			"tabPosition"	"0"
			"textinsetx"	"25"
			"use_proportional_insets" "1"
			"font"			"BigNoodleTitling16"
			"labelText"		"WORKSHOP"
			"textAlignment"	"west"
			"dulltext"		"0"
			"brighttext"	"0"
			"default"		"1"
			"sound_depressed"	"UI/buttonclick.wav"
			"sound_released"	"UI/buttonclickrelease.wav"
			
			"border_default"	""
			"border_armed"		"MenuButtonBorder"
			"paintbackground"	"0"
			
			"defaultFgColor_override" "TanLight"
			"armedFgColor_override" "MenuMouseover"
			"depressedFgColor_override" "MenuMouseover"
			
			"image_drawcolor"	"117 107 94 255"
			"image_armedcolor"	"235 226 202 255"
			"SubImage"
			{
				"ControlName"	"ImagePanel"
				"fieldName"		"SubImage"
				"xpos"			"6"
				"ypos"			"6"
				"zpos"			"1"
				"wide"			"14"
				"tall"			"14"
				"visible"		"1"
				"enabled"		"1"
				"scaleImage"	"1"
			}		
		}
	}
	"GeneralStoreButton"
	{
		"ControlName"	"EditablePanel"
		"fieldname"		"GeneralStoreButton"
		"xpos"			"-5"
		"ypos"			"236"
		"zpos"			"11"
		"wide"			"200"
		"tall"			"16"
		"visible"		"1"
		"PaintBackgroundType"	"2"
		"SubButton"
		{
			"ControlName"	"CExImageButton"
			"fieldName"		"SubButton"
			"xpos"			"0"
			"ypos"			"0"
			"wide"			"200"
			"tall"			"16"
			"autoResize"	"0"
			"pinCorner"		"3"
			"visible"		"1"
			"enabled"		"1"
			"tabPosition"	"0"
			"textinsetx"	"25"
			"use_proportional_insets" "1"
			"font"			"BigNoodleTitling16"
			"textAlignment"	"west"
			"dulltext"		"0"
			"brighttext"	"0"
			"default"		"1"
			"sound_depressed"	"UI/buttonclick.wav"
			"sound_released"	"UI/buttonclickrelease.wav"
			
			"border_default"	""
			"border_armed"		"MenuButtonBorder"
			"paintbackground"	"0"
			
			"defaultFgColor_override" "TanLight"
			"armedFgColor_override" "MenuMouseover"
			"depressedFgColor_override" "MenuMouseover"
			
			"image_drawcolor"	"117 107 94 255"
			"image_armedcolor"	"235 226 202 255"
			"SubImage"
			{
				"ControlName"	"ImagePanel"
				"fieldName"		"SubImage"
				"xpos"			"6"
				"ypos"			"6"
				"zpos"			"1"
				"wide"			"14"
				"tall"			"14"
				"visible"		"1"
				"enabled"		"1"
				"scaleImage"	"1"
			}		
		}
	}
	"CharacterSetupButton"
	{
		"ControlName"	"EditablePanel"
		"fieldname"		"CharacterSetupButton"
		"xpos"			"-5"
		"ypos"			"254"
		"zpos"			"11"
		"wide"			"200"
		"tall"			"16"
		"visible"		"1"
		"PaintBackgroundType"	"2"
		"SubButton"
		{
			"ControlName"	"CExImageButton"
			"fieldName"		"SubButton"
			"xpos"			"0"
			"ypos"			"0"
			"wide"			"200"
			"tall"			"16"
			"autoResize"	"0"
			"pinCorner"		"3"
			"visible"		"1"
			"enabled"		"1"
			"tabPosition"	"0"
			"textinsetx"	"25"
			"use_proportional_insets" "1"
			"font"			"BigNoodleTitling16"
			"textAlignment"	"west"
			"dulltext"		"0"
			"brighttext"	"0"
			"default"		"1"
			"sound_depressed"	"UI/buttonclick.wav"
			"sound_released"	"UI/buttonclickrelease.wav"
			
			"border_default"	""
			"border_armed"		"MenuButtonBorder"
			"paintbackground"	"0"
			
			"defaultFgColor_override" "TanLight"
			"armedFgColor_override" "MenuMouseover"
			"depressedFgColor_override" "MenuMouseover"
			
			"image_drawcolor"	"117 107 94 255"
			"image_armedcolor"	"235 226 202 255"
			"SubImage"
			{
				"ControlName"	"ImagePanel"
				"fieldName"		"SubImage"
				"xpos"			"6"
				"ypos"			"6"
				"zpos"			"1"
				"wide"			"14"
				"tall"			"14"
				"visible"		"1"
				"enabled"		"1"
				"scaleImage"	"1"
			}		
		}
	}

	"StoreBGPanel"
	{
		"ControlName"	"EditablePanel"
		"fieldName"		"StoreBGPanel"
		"xpos"			"9999"
		"ypos"			"9999"
		"zpos"			"-1"
		"wide"			"260"
		"tall"			"60"
		"visible"		"1"
		"PaintBackgroundType"	"2"
		"border"		""
	}
	"CustomizeLabel"
	{
		"ControlName"	"CExLabel"
		"fieldName"		"CustomizeLabel"
		"font"			"HudFontSmallBold"
		"labelText"		"#MMenu_Customize"
		"textAlignment"	"west"
		"xpos"			"c-203"
		"ypos"			"226"
		"wide"			"140"
		"tall"			"30"
		"autoResize"	"0"
		"pinCorner"		"0"
		"visible"		"0"
		"enabled"		"0"
		"fgcolor_override"	"235 227 203 255"
	}

	"CreateBGPanel"
	{
		"ControlName"	"EditablePanel"
		"fieldName"		"CreateBGPanel"
		"xpos"			"9999"
		"ypos"			"9999"
		"zpos"			"-1"
		"wide"			"260"
		"tall"			"60"
		"visible"		"1"
		"PaintBackgroundType"	"2"
		"border"		"MainMenuBGBorder"
	}
	"CreateLabel"
	{
		"ControlName"	"CExLabel"
		"fieldName"		"CreateLabel"
		"font"			"HudFontSmallBold"
		"labelText"		"#MMenu_Create"
		"textAlignment"	"west"
		"xpos"			"c-203"
		"ypos"			"298"
		"wide"			"0"
		"tall"			"0"
		"autoResize"	"0"
		"pinCorner"		"0"
		"visible"		"1"
		"enabled"		"1"
		"fgcolor_override"	"235 227 203 255"
	}
	
	"ShowPromoCodesButton"
	{
		"ControlName"	"CExImageButton"
		"fieldName"		"ShowPromoCodesButton"
		"xpos"			"9999"
		"ypos"			"9999"
		"wide"			"250"
		"tall"			"20"
		"autoResize"	"0"
		"pinCorner"		"3"
		"visible"		"1"
		"enabled"		"1"
		"tabPosition"	"0"
		"font"			"HudFontSmallestBold"
		"labelText"		"#MMenu_ShowPromoCodes"
		"textAlignment"	"center"
		"dulltext"		"0"
		"brighttext"	"0"
		"default"		"1"
		"sound_depressed"	"UI/buttonclick.wav"
		"sound_released"	"UI/buttonclickrelease.wav"
		"command"		"showpromocodes"
		
		"border_default"	"MainMenuButtonDefault"
		"border_armed"		"MainMenuButtonArmed"
		"paintbackground"	"0"
		
		"defaultFgColor_override" "46 43 42 255"
		"armedFgColor_override" "235 226 202 255"
		"depressedFgColor_override" "46 43 42 255"
	}
	"FreeTrialPanel"
	{
		"ControlName"	"EditablePanel"
		"fieldName"		"FreeTrialPanel"
		"xpos"			"c-300"
		"ypos"			"310"
		"zpos"			"0"
		"wide"			"250"
		"tall"			"130"
		"visible"		"0"

		"Image"
		{
			"ControlName"	"ImagePanel"
			"fieldName"		"Image"
			"xpos"			"0"
			"ypos"			"0"
			"zpos"			"0"
			"wide"			"80"
			"tall"			"80"
			"visible"		"1"
			"enabled"		"1"
			"image"			"tf_box"
			"scaleImage"	"1"
		}

		"UpgradeLabel1"
		{
			"ControlName"	"CExLabel"
			"fieldName"		"UpgradeLabel"
			"font"			"HudFontSmallestBold"
			"labelText"		"#TF_Trial_MainMenu_Upgrade1"
			"textAlignment"	"north"
			"xpos"			"80"
			"ypos"			"5"
			"wide"			"165"
			"tall"			"80"
			"autoResize"	"0"
			"pinCorner"		"0"
			"visible"		"1"
			"enabled"		"1"
			"wrap"			"1"
		}
		"UpgradeLabel2"
		{
			"ControlName"	"CExLabel"
			"fieldName"		"UpgradeLabel2"
			"font"			"HudFontSmallBold"
			"labelText"		"#TF_Trial_MainMenu_Upgrade2"
			"textAlignment"	"north"
			"xpos"			"80"
			"ypos"			"18"
			"wide"			"165"
			"tall"			"80"
			"autoResize"	"0"
			"pinCorner"		"0"
			"visible"		"1"
			"enabled"		"1"
			"wrap"			"1"
			"fgcolor"		"255 155 138 255"
		}
		"UpgradeLabel3"
		{
			"ControlName"	"CExLabel"
			"fieldName"		"UpgradeLabel3"
			"font"			"HudFontSmallestBold"
			"labelText"		"#TF_Trial_MainMenu_Upgrade3"
			"textAlignment"	"north"
			"xpos"			"80"
			"ypos"			"48"
			"wide"			"165"
			"tall"			"80"
			"autoResize"	"0"
			"pinCorner"		"0"
			"visible"		"1"
			"enabled"		"1"
			"wrap"			"1"
			"fgcolor"		"137 134 127 255"
		}
	}

	"Version"
	{
		"ControlName"	"EditablePanel"
		"fieldname"		"Version"
		"xpos"			"-53"
		"ypos"			"82"
		"zpos"			"11"
		"wide"			"216"
		"tall"			"20"
		"visible"		"1"
		"PaintBackgroundType"	"0"
		"SubButton"
		{
			"ControlName"	"CExImageButton"
			"fieldName"		"SubButton"
			"xpos"			"55"
			"ypos"			"-8"
			"wide"			"200"
			"tall"			"36"
			"autoResize"	"0"
			"pinCorner"		"3"
			"visible"		"1"
			"enabled"		"1"
			"tabPosition"	"0"
			"textinsetx"	"25"
			"use_proportional_insets" "1"
			"font"			"BigNoodleTitling24"
			"textAlignment"	"center"
			"labelText"		"Version 1.55"
			"dulltext"		"0"
			"brighttext"	"0"
			"default"		"1"
			
			"sound_depressed"	"UI/buttonclick.wav"
			"sound_released"	"UI/wooo_tree.wav"
			
			"border_default"	""
			"paintbackground"	"0"
			
			"defaultFgColor_override" "TanLight"
			"armedFgColor_override" "TanLight"
			"depressedFgColor_override" "TanLight"
			
			"image_drawcolor"	"117 107 94 255"
			"image_armedcolor"	"235 226 202 255"

			"SubImage"
			{
				"ControlName"	"ImagePanel"
				"fieldName"		"SubImage"
				"xpos"			"6"
				"ypos"			"6"
				"zpos"			"1"
				"wide"			"14"
				"tall"			"14"
				"visible"		"1"
				"enabled"		"1"
				"scaleImage"	"1"
			}
		}
	}
	
	"TopLeftDataPanel"
	{
		"ControlName" "EditablePanel"
		"fieldName" "TopLeftDataPanel"
		"xpos" "12"
		"ypos" "105"
		"zpos" "10"
		"wide" "300"
		"tall" "15"
		"visible" "1"
		"PaintBackgroundType" "2"
		"bgcolor_override" "0 0 0 0"

		"WelcomeLabel"
		{
			"ControlName"	"CExLabel"
			"fieldName"	"WelcomeLabel"
			"font"	"BigNoodleTitling16"
			"labelText"	"#WelcomeBack"
			"textAlignment"	"center"
			"xpos"	"0"
			"ypos"	"0"
			"wide"	"180"
			"tall"	"15"
			"zpos"	"1"
			"autoResize"	"0"
			"pinCorner"	"0"
			"visible"	"1"
			"enabled"	"1"
		}
	}
	/////////////////////////////////////////////////////////////////////////
	//THE MINI TUTORIAL: SERVER LINKS                                      //
	//BY FLATLINE  														   //
	//Six server templates are provided by default.                        //
	//To add more:                                                         //
	//1) copy the entire bracket (from "FavoriteServer" to the last closing//
	//bracket } <-- this thing)                                            //
	//2) paste below it                                                    //
	//3) change the fieldname to something else (ex. FavoriteServer7) and  //
	//change the title to reflect that                                     //
	/////////////////////////////////////////////////////////////////////////
	
	//Always remember: The "fieldname" and section title ALWAYS MUST MATCH!//
	
    "FavoriteServer" //Formality.  If you change fieldname, change this too.
	{
	    "ControlName"   "CExImageButton" //Tells the game what kind of button this is.  Don't mess with this.
		"fieldname"     "FavoriteServer" //If you ever use this elsewhere, this is what tells the game what you're talking about.  Don't touch unless you mess with the header.
	    "xpos"          "600" //Controls movement on the x-axis.  Default should be fine unless you add more.
		"ypos"          "462" //Controls movement on the y-axis.  
		"zpos"          "11" // Overlays elements.  Shouldn't need to be touched.
		"wide"			"100" //Controls the wide value of the text field.  This setting allows for a lot of extra space so it shouldnt need to be changed unless you change the font above 16
		"tall"			"16" //Controls the height value of the text field.  Change to whatever value you change the font size to and everything should be fine (unless you change it below 16).  Changing these might mess with the x-or y-pos.
		"autoResize"	"0" //don't touch
		"pinCorner"		"3" //don't touch
		"visible"		"1" //Controls visibility.  Change this to 1.
		"enabled"		"1" //Controls enability for elements that aren't viewable.  Don't change this.
		"tabPosition"	"0" //don't touch
		"labelText"		"Cc.Connect" //Controls what displays on the hud for this name.  Change to whatever you like.
		"font"			"BigNoodleTitling16" //Font value.  Can change the number to other values (8,24,36,etc) for different sizes.
		"textAlignment"	"west" //Changing this massively upsets x and y values.  Don't touch.
		"textinsetx"	"35" //don't touch
		"use_proportional_insets" "1" //don't touch
		"dulltext"		"0" //don't touch
		"brighttext"	"0" //don't touch
		"default"		"1" //don't touch
		"paintbackground""0" //don't touch
		"Command"		"engine connect crimsonclan.game.nfoservers.com:27015" //Controls what the button actually connects to. Don't touch the engine part, replace the whole [connect string here] with the connect string to whatever server you want (pass if needed).
		
		"defaultFgColor_override" "TanLight" //color stuff, don't change
		"armedFgColor_override" "MenuMouseover"
		"depressedFgColor_override" "MenuMouseover"
		
		"sound_depressed"	"UI/buttonclick.wav" //sound stuff, don't change
		"sound_released"	"UI/buttonclickrelease.wav"
		
		"image_drawcolor"	"235 226 202 255"
					
	}		
	
	"FavoriteServer2" 
	{
	    "ControlName"   "CExImageButton" 
		"fieldname"     "FavoriteServer2" 
	    "xpos"          "600" 
		"ypos"          "442"
		"zpos"          "11" 
		"wide"			"100" 
		"tall"			"16" 
		"autoResize"	"0" 
		"pinCorner"		"3" 
		"visible"		"0" 
		"enabled"		"1" 
		"tabPosition"	"0" 
		"labelText"		"" 
		"font"			"BigNoodleTitling16" 
		"textAlignment"	"west" 
		"textinsetx"	"35"
		"use_proportional_insets" "1"
		"dulltext"		"0"
		"brighttext"	"0"
		"default"		"1"
		"paintbackground""0"
		"Command"		"engine [connect string here]" 
		
		"defaultFgColor_override" "TanLight" 
		"armedFgColor_override" "MenuMouseover"
		"depressedFgColor_override" "MenuMouseover"
		
		"sound_depressed"	"UI/buttonclick.wav" 
		"sound_released"	"UI/buttonclickrelease.wav"
		
		"image_drawcolor"	"235 226 202 255"
					
	}		
	
	"FavoriteServer3" 
	{
	    "ControlName"   "CExImageButton" 
		"fieldname"     "FavoriteServer3" 
	    "xpos"          "600" 
		"ypos"          "422"
		"zpos"          "11" 
		"wide"			"100" 
		"tall"			"16" 
		"autoResize"	"0" 
		"pinCorner"		"3" 
		"visible"		"0" 
		"enabled"		"1" 
		"tabPosition"	"0" 
		"labelText"		"" 
		"font"			"BigNoodleTitling16" 
		"textAlignment"	"west" 
		"textinsetx"	"35"
		"use_proportional_insets" "1"
		"dulltext"		"0"
		"brighttext"	"0"
		"default"		"1"
		"paintbackground""0"
		"Command"		"engine [connect string here]" 
		
		"defaultFgColor_override" "TanLight" 
		"armedFgColor_override" "MenuMouseover"
		"depressedFgColor_override" "MenuMouseover"
		
		"sound_depressed"	"UI/buttonclick.wav" 
		"sound_released"	"UI/buttonclickrelease.wav"
		
		"image_drawcolor"	"235 226 202 255"
					
	}	
	
	"FavoriteServer4" 
	{
	    "ControlName"   "CExImageButton" 
		"fieldname"     "FavoriteServer4" 
	    "xpos"          "500" 
		"ypos"          "462"
		"zpos"          "11" 
		"wide"			"100" 
		"tall"			"16" 
		"autoResize"	"0" 
		"pinCorner"		"3" 
		"visible"		"0" 
		"enabled"		"1" 
		"tabPosition"	"0" 
		"labelText"		"" 
		"font"			"BigNoodleTitling16" 
		"textAlignment"	"west" 
		"textinsetx"	"35"
		"use_proportional_insets" "1"
		"dulltext"		"0"
		"brighttext"	"0"
		"default"		"1"
		"paintbackground""0"
		"Command"		"engine [connect string here]" 
		
		"defaultFgColor_override" "TanLight" 
		"armedFgColor_override" "MenuMouseover"
		"depressedFgColor_override" "MenuMouseover"
		
		"sound_depressed"	"UI/buttonclick.wav" 
		"sound_released"	"UI/buttonclickrelease.wav"
		
		"image_drawcolor"	"235 226 202 255"
					
	}	
	
	"FavoriteServer5" 
	{
	    "ControlName"   "CExImageButton" 
		"fieldname"     "FavoriteServer5" 
	    "xpos"          "500" 
		"ypos"          "442"
		"zpos"          "11" 
		"wide"			"100" 
		"tall"			"16" 
		"autoResize"	"0" 
		"pinCorner"		"3" 
		"visible"		"0" 
		"enabled"		"1" 
		"tabPosition"	"0" 
		"labelText"		"" 
		"font"			"BigNoodleTitling16" 
		"textAlignment"	"west" 
		"textinsetx"	"35"
		"use_proportional_insets" "1"
		"dulltext"		"0"
		"brighttext"	"0"
		"default"		"1"
		"paintbackground""0"
		"Command"		"engine [connect string here]" 
		
		"defaultFgColor_override" "TanLight" 
		"armedFgColor_override" "MenuMouseover"
		"depressedFgColor_override" "MenuMouseover"
		
		"sound_depressed"	"UI/buttonclick.wav" 
		"sound_released"	"UI/buttonclickrelease.wav"
		
		"image_drawcolor"	"235 226 202 255"
					
	}	
	
	"FavoriteServer6" 
	{
	    "ControlName"   "CExImageButton" 
		"fieldname"     "FavoriteServer6" 
	    "xpos"          "500" 
		"ypos"          "422"
		"zpos"          "11" 
		"wide"			"100" 
		"tall"			"16" 
		"autoResize"	"0" 
		"pinCorner"		"3" 
		"visible"		"0" 
		"enabled"		"1" 
		"tabPosition"	"0" 
		"labelText"		"" 
		"font"			"BigNoodleTitling16" 
		"textAlignment"	"west" 
		"textinsetx"	"35"
		"use_proportional_insets" "1"
		"dulltext"		"0"
		"brighttext"	"0"
		"default"		"1"
		"paintbackground""0"
		"Command"		"engine [connect string here]" 
		
		"defaultFgColor_override" "TanLight" 
		"armedFgColor_override" "MenuMouseover"
		"depressedFgColor_override" "MenuMouseover"
		
		"sound_depressed"	"UI/buttonclick.wav" 
		"sound_released"	"UI/buttonclickrelease.wav"
		
		"image_drawcolor"	"235 226 202 255"
					
	}	
	"QuickplayButton"
	{
		"ControlName"	"EditablePanel"
		"fieldname"		"QuickplayButton"
		"xpos"			"-5"
		"ypos"			"148"
		"zpos"			"11"
		"wide"			"170"
		"tall"			"16"
		"visible"		"1"
		"PaintBackgroundType"	"1"
		"SubButton"
		{
			"ControlName"	"CExImageButton"
			"fieldName"		"SubButton"
			"xpos"			"0"
			"ypos"			"0"
			"wide"			"200"
			"tall"			"16"
			"autoResize"	"0"
			"pinCorner"		"3"
			"visible"		"1"
			"enabled"		"1"
			"tabPosition"	"0"
			"textinsetx"	"25"
			"use_proportional_insets" "1"
			"font"			"BigNoodleTitling16"
			"textAlignment"	"west"
			"dulltext"		"0"
			"brighttext"	"0"
			"default"		"1"
			"sound_depressed"	"UI/buttonclick.wav"
			"sound_released"	"UI/buttonclickrelease.wav"
			
			"border_default"	"NoBorder"
			"border_armed"		"MenuButtonBorder"
			"paintbackground"	"0"
			
			"defaultFgColor_override" "TanLight"
			"armedFgColor_override" "MenuMouseover"
			"depressedFgColor_override" "MenuMouseover"
			
			"image_drawcolor"	"117 107 94 255"
			"image_armedcolor"	"235 226 202 255"

			"SubImage"
			{
				"ControlName"	"ImagePanel"
				"fieldName"		"SubImage"
				"xpos"			"6"
				"ypos"			"6"
				"zpos"			"1"
				"wide"			"14"
				"tall"			"14"
				"visible"		"1"
				"enabled"		"1"
				"scaleImage"	"1"
			}
		}
	}

	"QuickplayChangeButton"
	{
		"ControlName"	"EditablePanel"
		"fieldname"		"QuickplayChangeButton"
		"xpos"			"-5"
		"ypos"			"148"
		"zpos"			"11"
		"wide"			"200"
		"tall"			"16"
		"visible"		"1"
		"PaintBackgroundType"	"0"
		"SubButton"
		{
			"ControlName"	"CExImageButton"
			"fieldName"		"SubButton"
			"xpos"			"0"
			"ypos"			"0"
			"wide"			"125"
			"tall"			"16"
			"autoResize"	"0"
			"pinCorner"		"3"
			"visible"		"1"
			"enabled"		"1"
			"tabPosition"	"0"
			"textinsetx"	"25"
			"use_proportional_insets" "1"
			"font"			"BigNoodleTitling16"
			"textAlignment"	"west"
			"dulltext"		"0"
			"brighttext"	"0"
			"default"		"1"
			"sound_depressed"	"UI/buttonclick.wav"
			"sound_released"	"UI/buttonclickrelease.wav"
			
			"border_default"	""
			"border_armed"		"MenuButtonBorder"
			"paintbackground"	"0"
			
			"defaultFgColor_override" "TanLight"
			"armedFgColor_override" "MenuMouseover"
			"depressedFgColor_override" "MenuMouseover"
			
			"image_drawcolor"	"117 107 94 255"
			"image_armedcolor"	"235 226 202 255"

			"SubImage"
			{
				"ControlName"	"ImagePanel"
				"fieldName"		"SubImage"
				"xpos"			"6"
				"ypos"			"6"
				"zpos"			"1"
				"wide"			"14"
				"tall"			"14"
				"visible"		"1"
				"enabled"		"1"
				"scaleImage"	"1"
			}
		}
	}

	"PlayPVEButton"
	{
		"ControlName"	"EditablePanel"
		"fieldname"		"PlayPVEButton"
		"xpos"			"-5"
		"ypos"			"166"
		"zpos"			"11"
		"wide"			"200"
		"tall"			"16"
		"visible"		"1"
		"PaintBackgroundType"	"0"
		"SubButton"
		{
			"ControlName"	"CExImageButton"
			"fieldName"		"SubButton"
			"xpos"			"0"
			"ypos"			"0"
			"wide"			"200"
			"tall"			"16"
			"autoResize"	"0"
			"pinCorner"		"3"
			"visible"		"1"
			"enabled"		"1"
			"tabPosition"	"0"
			"textinsetx"	"25"
			"use_proportional_insets" "1"
			"labelText"			"MvM"
			"font"			"BigNoodleTitling16"
			"textAlignment"	"west"
			"dulltext"		"0"
			"brighttext"	"0"
			"default"		"1"
			"sound_depressed"	"UI/buttonclick.wav"
			"sound_released"	"UI/buttonclickrelease.wav"
			
			"border_default"	""
			"border_armed"		"MenuButtonBorder"
			"paintbackground"	"0"
			
			"defaultFgColor_override" "TanLight"
			"armedFgColor_override" "MenuMouseover"
			"depressedFgColor_override" "MenuMouseover"
			
			"image_drawcolor"	"117 107 94 255"
			"image_armedcolor"	"235 226 202 255"

			"SubImage"
			{
				"ControlName"	"ImagePanel"
				"fieldName"		"SubImage"
				"xpos"			"6"
				"ypos"			"6"
				"zpos"			"1"
				"wide"			"14"
				"tall"			"14"
				"visible"		"1"
				"enabled"		"1"
				"scaleImage"	"1"
			}
		}
	}
		
	"ServerBrowserButton"
	{
		"ControlName"	"EditablePanel"
		"fieldname"		"ServerBrowserButton"
		"xpos"			"-5"
		"ypos"			"184"
		"zpos"			"11"
		"wide"			"200"
		"tall"			"16"
		"visible"		"1"
		"PaintBackgroundType"	"0"
		"SubButton"
		{
			"ControlName"	"CExImageButton"
			"fieldName"		"SubButton"
			"xpos"			"0"
			"ypos"			"0"
			"wide"			"200"
			"tall"			"16"
			"autoResize"	"0"
			"pinCorner"		"3"
			"visible"		"1"
			"enabled"		"1"
			"tabPosition"	"0"
			"textinsetx"	"25"
			"use_proportional_insets" "1"
			"font"			"BigNoodleTitling16"
			"textAlignment"	"west"
			"dulltext"		"0"
			"brighttext"	"0"
			"default"		"1"
			"sound_depressed"	"UI/buttonclick.wav"
			"sound_released"	"UI/buttonclickrelease.wav"
			
			"border_default"	""
			"border_armed"		"MenuButtonBorder"
			"paintbackground"	"0"
			
			"defaultFgColor_override" "TanLight"
			"armedFgColor_override" "MenuMouseover"
			"depressedFgColor_override" "MenuMouseover"
			
			"image_drawcolor"	"117 107 94 255"
			"image_armedcolor"	"235 226 202 255"

			"SubImage"
			{
				"ControlName"	"ImagePanel"
				"fieldName"		"SubImage"
				"xpos"			"6"
				"ypos"			"6"
				"zpos"			"1"
				"wide"			"0"
				"tall"			"0"
				"visible"		"1"
				"enabled"		"1"
				"scaleImage"	"1"
			}
		}
	}
	
	"ChangeServerButton"
	{
		"ControlName"	"EditablePanel"
		"fieldname"		"ChangeServerButton"
		"xpos"			"-5"
		"ypos"			"184"
		"zpos"			"11"
		"wide"			"200"
		"tall"			"16"
		"visible"		"1"
		"PaintBackgroundType"	"0"
		"SubButton"
		{
			"ControlName"	"CExImageButton"
			"fieldName"		"SubButton"
			"xpos"			"0"
			"ypos"			"0"
			"wide"			"125"
			"tall"			"16"
			"autoResize"	"0"
			"pinCorner"		"3"
			"visible"		"1"
			"enabled"		"1"
			"tabPosition"	"0"
			"textinsetx"	"25"
			"use_proportional_insets" "1"
			"font"			"BigNoodleTitling16"
			"textAlignment"	"west"
			"dulltext"		"0"
			"brighttext"	"0"
			"default"		"1"
			"sound_depressed"	"UI/buttonclick.wav"
			"sound_released"	"UI/buttonclickrelease.wav"
			
			"border_default"	""
			"border_armed"		"MenuButtonBorder"
			"paintbackground"	"0"
			
			"defaultFgColor_override" "TanLight"
			"armedFgColor_override" "MenuMouseover"
			"depressedFgColor_override" "MenuMouseover"
			
			"image_drawcolor"	"117 107 94 255"
			"image_armedcolor"	"235 226 202 255"

			"SubImage"
			{
				"ControlName"	"ImagePanel"
				"fieldName"		"SubImage"
				"xpos"			"6"
				"ypos"			"6"
				"zpos"			"1"
				"wide"			"0"
				"tall"			"0"
				"visible"		"1"
				"enabled"		"1"
				"scaleImage"	"1"
			}
		}
	}
	
	"ResumeGameButton"
	{
		"ControlName"	"EditablePanel"
		"fieldname"		"ResumeGameButton"
		"xpos"			"-5"
		"ypos"			"148"
		"zpos"			"11"
		"wide"			"200"
		"tall"			"16"
		"visible"		"0"
		"PaintBackgroundType"	"0"
		"SubButton"
		{
			"ControlName"	"CExImageButton"
			"fieldName"		"SubButton"
			"xpos"			"0"
			"ypos"			"0"
			"wide"			"200"
			"tall"			"16"
			"autoResize"	"0"
			"pinCorner"		"3"
			"visible"		"1"
			"enabled"		"1"
			"tabPosition"	"0"
			"textinsetx"	"25"
			"use_proportional_insets" "1"
			"font"			"BigNoodleTitling16"
			"textAlignment"	"west"
			"dulltext"		"0"
			"brighttext"	"0"
			"default"		"1"
			"sound_depressed"	"UI/buttonclick.wav"
			"sound_released"	"UI/buttonclickrelease.wav"
			
			"border_default"	""
			"border_armed"		"MenuButtonBorder"
			"paintbackground"	"0"
			
			"defaultFgColor_override" "TanLight"
			"armedFgColor_override" "MenuMouseover"
			"depressedFgColor_override" "MenuMouseover"
			
			"image_drawcolor"	"117 107 94 255"
			"image_armedcolor"	"235 226 202 255"

			"SubImage"
			{
				"ControlName"	"ImagePanel"
				"fieldName"		"SubImage"
				"xpos"			"6"
				"ypos"			"6"
				"zpos"			"1"
				"wide"			"0"
				"tall"			"0"
				"visible"		"1"
				"enabled"		"1"
				"scaleImage"	"1"
			}
		}
	}

	"CallVoteButton"
	{
		"ControlName"	"EditablePanel"
		"fieldname"		"CallVoteButton"
		"xpos"			"125"
		"ypos"			"146"
		"zpos"			"12"
		"wide"			"20"
		"tall"			"20"
		"visible"		"1"

		"SubButton"
		{
			"ControlName"	"CExImageButton"
			"fieldName"		"SubButton"
			"xpos"			"0"
			"ypos"			"0"
			"wide"			"20"
			"tall"			"20"
			"autoResize"	"0"
			"pinCorner"		"3"
			"visible"		"1"
			"enabled"		"1"
			"tabPosition"	"0"
			"textinsetx"	"100"
			"use_proportional_insets" "1"
			"font"			"HudFontSmallBold"
			"textAlignment"	"west"
			"dulltext"		"0"
			"brighttext"	"0"
			"default"		"1"
			"sound_depressed"	"UI/buttonclick.wav"
			"sound_released"	"UI/buttonclickrelease.wav"
			
			"border_default"	""
			"paintbackground"	"0"
			
			"defaultFgColor_override" "TanLight"
			"armedFgColor_override" "MenuMouseover"
			"depressedFgColor_override" "MenuMouseover"
			
			"image_drawcolor"	"235 226 202 255"
			"image_armedcolor"	"MenuMouseover"
			
			"SubImage"
			{
				"ControlName"	"ImagePanel"
				"fieldName"		"SubImage"
				"xpos"			"4"
				"ypos"			"4"
				"zpos"			"1"
				"wide"			"12"
				"tall"			"12"
				"visible"		"1"
				"enabled"		"1"
				"image"			"glyph_create"
				"scaleImage"	"1"
			}				
		}
	}
	"MutePlayersButton"
	{
		"ControlName"	"EditablePanel"
		"fieldname"		"MutePlayersButton"
		"xpos"			"145"
		"ypos"			"146"
		"zpos"			"12"
		"wide"			"20"
		"tall"			"20"
		"visible"		"1"

		"SubButton"
		{
			"ControlName"	"CExImageButton"
			"fieldName"		"SubButton"
			"xpos"			"0"
			"ypos"			"0"
			"wide"			"20"
			"tall"			"20"
			"autoResize"	"0"
			"pinCorner"		"3"
			"visible"		"1"
			"enabled"		"1"
			"tabPosition"	"0"
			"textinsetx"	"100"
			"use_proportional_insets" "1"
			"font"			"HudFontSmallBold"
			"textAlignment"	"west"
			"dulltext"		"0"
			"brighttext"	"0"
			"default"		"1"
			"sound_depressed"	"UI/buttonclick.wav"
			"sound_released"	"UI/buttonclickrelease.wav"
			
			"border_default"	""
			"paintbackground"	"0"
			
			"defaultFgColor_override" "TanLight"
			"armedFgColor_override" "MenuMouseover"
			"depressedFgColor_override" "MenuMouseover"
			
			"image_drawcolor"	"235 226 202 255"
			"image_armedcolor"	"MenuMouseover"
			
			"SubImage"
			{
				"ControlName"	"ImagePanel"
				"fieldName"		"SubImage"
				"xpos"			"4"
				"ypos"			"4"
				"zpos"			"1"
				"wide"			"12"
				"tall"			"12"
				"visible"		"1"
				"enabled"		"1"
				"image"			"glyph_create"
				"scaleImage"	"1"
			}				
		}
	}
	"RequestCoachButton"
	{
		"ControlName"	"EditablePanel"
		"fieldname"		"RequestCoachButton"
		"xpos"			"165"
		"ypos"			"146"
		"zpos"			"12"
		"wide"			"20"
		"tall"			"20"
		"visible"		"1"

		"SubButton"
		{
			"ControlName"	"CExImageButton"
			"fieldName"		"SubButton"
			"xpos"			"0"
			"ypos"			"0"
			"wide"			"20"
			"tall"			"20"
			"autoResize"	"0"
			"pinCorner"		"3"
			"visible"		"1"
			"enabled"		"1"
			"tabPosition"	"0"
			"textinsetx"	"100"
			"use_proportional_insets" "1"
			"font"			"HudFontSmallBold"
			"textAlignment"	"west"
			"dulltext"		"0"
			"brighttext"	"0"
			"default"		"1"
			"sound_depressed"	"UI/buttonclick.wav"
			"sound_released"	"UI/buttonclickrelease.wav"
			
			"border_default"	""
			"paintbackground"	"0"
			
			"defaultFgColor_override" "TanLight"
			"armedFgColor_override" "MenuMouseover"
			"depressedFgColor_override" "MenuMouseover"
			
			"image_drawcolor"	"235 226 202 255"
			"image_armedcolor"	"MenuMouseover"
			
			"SubImage"
			{
				"ControlName"	"ImagePanel"
				"fieldName"		"SubImage"
				"xpos"			"4"
				"ypos"			"4"
				"zpos"			"1"
				"wide"			"12"
				"tall"			"12"
				"visible"		"1"
				"enabled"		"1"
				"image"			"glyph_create"
				"scaleImage"	"1"
			}				
		}
	}
	
	"BackgroundFooter"
	{
		"ControlName"	"ImagePanel"
		"fieldName"		"BackgroundFooter"
		"xpos"			"9999"
		"ypos"			"9999"
		"zpos"			"-50"
		"wide"			"f0"
		"tall"			"60"
		"visible"		"1"
		"enabled"		"1"
		"image"			"loadout_bottom_gradient"
		"tileImage"		"1"
	}				
	"FooterLine"
	{
		"ControlName"	"ImagePanel"
		"fieldName"		"FooterLine"
		"xpos"			"9999"
		"ypos"			"9999"
		"zpos"			"-5-"
		"wide"			"f0"
		"tall"			"10"
		"visible"		"1"
		"enabled"		"1"
		"image"			"loadout_solid_line"
		"scaleImage"	"1"
	}	
	
	"NewUserForumsButton"
	{
		"ControlName"	"CExImageButton"
		"fieldName"		"NewUserForumsButton"
		"xpos"			"50"
		"ypos"			"120"
		"zpos"			"2"
		"wide"			"24"
		"tall"			"18"
		"autoResize"	"0"
		"pinCorner"		"3"
		"visible"		"1"
		"enabled"		"1"
		"tabPosition"	"0"
		"labelText"		""
		"paintbackground""0"
		"font"			"HudFontSmallBold"
		"textAlignment"	"center"
		"dulltext"		"0"
		"brighttext"	"0"
		"default"		"1"
		"Command"		"view_newuser_forums"
		"sound_depressed"	"UI/buttonclick.wav"
		"sound_released"	"UI/buttonclickrelease.wav"
		"PaintBackgroundType" "0"
		
		"image_drawcolor"	"235 226 202 255"
		"image_armedcolor"	"MenuMouseover"
		"SubImage"
		{
			"ControlName"	"ImagePanel"
			"fieldName"		"SubImage"
			"xpos"			"4"
			"ypos"			"4"
			"zpos"			"1"
			"wide"			"14"
			"tall"			"14"
			"visible"		"1"
			"enabled"		"1"
			"image"			"glyph_tutorial"
			"scaleImage"	"1"
		}				
	}		
	
	"AchievementsButton"
	{
		"ControlName"	"CExImageButton"
		"fieldName"		"AchievementsButton"
		"xpos"			"70"
		"ypos"			"120"
		"zpos"			"3"
		"wide"			"24"
		"tall"			"18"
		"autoResize"	"0"
		"pinCorner"		"3"
		"visible"		"1"
		"enabled"		"1"
		"tabPosition"	"0"
		"labelText"		""
		"paintbackground""0"
		"font"			"HudFontSmallBold"
		"textAlignment"	"center"
		"dulltext"		"0"
		"brighttext"	"0"
		"default"		"1"
		"Command"		"OpenAchievementsDialog"
		"sound_depressed"	"UI/buttonclick.wav"
		"sound_released"	"UI/buttonclickrelease.wav"
		"border_default"	""
		
		"image_drawcolor"	"235 226 202 255"
		"image_armedcolor"	"MenuMouseover"
		"SubImage"
		{
			"ControlName"	"ImagePanel"
			"fieldName"		"SubImage"
			"xpos"			"4"
			"ypos"			"4"
			"zpos"			"1"
			"wide"			"14"
			"tall"			"14"
			"visible"		"1"
			"enabled"		"1"
			"image"			"glyph_achievements"
			"scaleImage"	"1"
		}				
	}		
	
	"CommentaryButton"
	{
		"ControlName"	"CExImageButton"
		"fieldName"		"CommentaryButton"
		"xpos"			"90"
		"ypos"			"120"
		"zpos"			"4"
		"wide"			"24"
		"tall"			"18"
		"autoResize"	"0"
		"pinCorner"		"3"
		"visible"		"1"
		"enabled"		"1"
		"tabPosition"	"0"
		"labelText"		""
		"font"			"HudFontSmallBold"
		"textAlignment"	"center"
		"dulltext"		"0"
		"brighttext"	"0"
		"default"		"1"
		"Command"		"OpenLoadSingleplayerCommentaryDialog"
		"sound_depressed"	"UI/buttonclick.wav"
		"sound_released"	"UI/buttonclickrelease.wav"

		"border_default"	""
		"paintbackground"	"0"
		
		
		"image_drawcolor"	"235 226 202 255"
		"image_armedcolor"	"MenuMouseover"
		"SubImage"
		{
			"ControlName"	"ImagePanel"
			"fieldName"		"SubImage"
			"xpos"			"4"
			"ypos"			"4"
			"zpos"			"1"
			"wide"			"14"
			"tall"			"14"
			"visible"		"1"
			"enabled"		"1"
			"image"			"glyph_forums"
			"scaleImage"	"1"
		}	
	}		
	
	"CoachPlayersButton"
	{
		"ControlName"	"CExImageButton"
		"fieldName"		"CoachPlayersButton"
		"xpos"			"110"
		"ypos"			"120"
		"zpos"			"5"
		"wide"			"24"
		"tall"			"18"
		"autoResize"	"0"
		"pinCorner"		"3"
		"visible"		"1"
		"enabled"		"1"
		"tabPosition"	"0"
		"labelText"		""
		"font"			"HudFontSmallBold"
		"textAlignment"	"center"
		"paintbackground""0"
		"dulltext"		"0"
		"brighttext"	"0"
		"default"		"1"
		"Command"		"engine cl_coach_toggle"
		"sound_depressed"	"UI/buttonclick.wav"
		"sound_released"	"UI/buttonclickrelease.wav"
		"border_default"	""
		
		"image_drawcolor"	"235 226 202 255"
		"image_armedcolor"	"MenuMouseover"
		"SubImage"
		{
			"ControlName"	"ImagePanel"
			"fieldName"		"SubImage"
			"xpos"			"4"
			"ypos"			"4"
			"zpos"			"1"
			"wide"			"14"
			"tall"			"14"
			"visible"		"1"
			"enabled"		"1"
			"image"			"glyph_commentary"
			"scaleImage"	"1"
		}				
	}	
	
	"ReportBugButton"
	{
		"ControlName"	"CExImageButton"
		"fieldName"		"ReportBugButton"
		"xpos"			"130"
		"ypos"			"120"
		"zpos"			"2"
		"wide"			"24"
		"tall"			"18"
		"autoResize"	"0"
		"pinCorner"		"3"
		"visible"		"1"
		"enabled"		"1"
		"tabPosition"	"0"
		"labelText"		""
		"font"			"HudFontSmallBold"
		"textAlignment"	"center"
		"dulltext"		"0"
		"brighttext"	"0"
		"default"		"1"
		"paintbackground""0"
		"Command"		"engine bug"
		"sound_depressed"	"UI/buttonclick.wav"
		"sound_released"	"UI/buttonclickrelease.wav"
		
		"image_drawcolor"	"235 226 202 255"
		"image_armedcolor"	"MenuMouseover"
		"SubImage"
		{
			"ControlName"	"ImagePanel"
			"fieldName"		"SubImage"
			"xpos"			"4"
			"ypos"			"4"
			"zpos"			"1"
			"wide"			"14"
			"tall"			"14"
			"visible"		"1"
			"enabled"		"1"
			"image"			"glyph_bug"
			"scaleImage"	"1"
		}				
	}		
	
	"TF2SettingsButton"
	{
		"ControlName"	"CExImageButton"
		"fieldName"		"TF2SettingsButton"
		"xpos"			"-15"
		"ypos"			"362"
		"zpos"			"1"
		"wide"			"200"
		"tall"			"16"
		"autoResize"	"0"
		"pinCorner"		"3"
		"visible"		"1"
		"enabled"		"1"
		"tabPosition"	"0"
		"labelText"		"Adv. Options"
		"font"			"BigNoodleTitling16"
		"textAlignment"	"west"
		"textinsetx"	"35"
		"use_proportional_insets" "1"
		"dulltext"		"0"
		"brighttext"	"0"
		"default"		"1"
		"paintbackground""0"
		"Command"		"opentf2options"
		
		"defaultFgColor_override" "TanLight"
		"armedFgColor_override" "MenuMouseover"
		"depressedFgColor_override" "MenuMouseover"
		
		"sound_depressed"	"UI/buttonclick.wav"
		"sound_released"	"UI/buttonclickrelease.wav"
		
		"image_drawcolor"	"235 226 202 255"
		"SubImage"
		{
			"ControlName"	"ImagePanel"
			"fieldName"		"SubImage"
			"xpos"			"16"
			"ypos"			"6"
			"zpos"			"1"
			"wide"			"0"
			"tall"			"0"
			"visible"		"1"
			"enabled"		"1"
			"scaleImage"	"1"
			"image"			"glyph_options"
		}						
	}		
	
	"SettingsButton"
	{
		"ControlName"	"CExImageButton"
		"fieldName"		"SettingsButton"
		"xpos"			"-15"
		"ypos"			"344"
		"zpos"			"1"
		"wide"			"200"
		"tall"			"16"
		"autoResize"	"0"
		"pinCorner"		"3"
		"visible"		"1"
		"enabled"		"1"
		"tabPosition"	"0"
		"labelText"		"Options"
		"font"			"BigNoodleTitling16"
		"textAlignment"	"west"
		"textinsetx"	"35"
		"use_proportional_insets" "1"
		"dulltext"		"0"
		"brighttext"	"0"
		"default"		"1"
		"paintbackground""0"
		"Command"		"OpenOptionsDialog"
		
		"defaultFgColor_override" "TanLight"
		"armedFgColor_override" "MenuMouseover"
		"depressedFgColor_override" "MenuMouseover"
		
		"sound_depressed"	"UI/buttonclick.wav"
		"sound_released"	"UI/buttonclickrelease.wav"
		
		"image_drawcolor"	"235 226 202 255"
		"SubImage"
		{
			"ControlName"	"ImagePanel"
			"fieldName"		"SubImage"
			"xpos"			"16"
			"ypos"			"6"
			"zpos"			"1"
			"wide"			"0"
			"tall"			"0"
			"visible"		"1"
			"enabled"		"1"
			"scaleImage"	"1"
			"image"			"glyph_options"
		}			
	}
	
	"ScoreboardToggle"
	{
		"ControlName"	"CExImageButton"
		"fieldName"		"ScoreboardToggle"
		"xpos"			"-15"
		"ypos"			"380"
		"zpos"			"1"
		"wide"			"200"
		"tall"			"16"
		"autoResize"	"0"
		"pinCorner"		"3"
		"visible"		"1"
		"enabled"		"1"
		"tabPosition"	"0"
		"labelText"		"Switch Scoreboards"
		"font"			"BigNoodleTitling16"
		"textAlignment"	"west"
		"textinsetx"	"35"
		"use_proportional_insets" "1"
		"dulltext"		"0"
		"brighttext"	"0"
		"default"		"1"
		"paintbackground""0"
		"Command"		"engine incrementvar cl_hud_minmode 0 1 1"
		
		"defaultFgColor_override" "TanLight"
		"armedFgColor_override" "MenuMouseover"
		"depressedFgColor_override" "MenuMouseover"
		
		"sound_depressed"	"UI/buttonclick.wav"
		"sound_released"	"UI/buttonclickrelease.wav"
		
		"image_drawcolor"	"235 226 202 255"
		"SubImage"
		{
			"ControlName"	"ImagePanel"
			"fieldName"		"SubImage"
			"xpos"			"16"
			"ypos"			"6"
			"zpos"			"1"
			"wide"			"0"
			"tall"			"0"
			"visible"		"1"
			"enabled"		"1"
			"scaleImage"	"1"
			"image"			"glyph_options"
		}			
	}
	
	"QuitButton"
	{
		"ControlName"	"CExImageButton"
		"fieldName"		"QuitButton"
		"xpos"			"-15"
		"ypos"			"416"
		"zpos"			"1"
		"wide"			"150"
		"tall"			"16"
		"autoResize"	"0"
		"pinCorner"		"3"
		"visible"		"1"
		"enabled"		"1"
		"tabPosition"	"0"
		"labelText"		"Quit"
		"font"			"BigNoodleTitling16"
		"textAlignment"	"west"
		"textinsetx"	"35"
		"use_proportional_insets" "1"
		"dulltext"		"0"
		"brighttext"	"0"
		"default"		"1"
		"paintbackground""0"
		"Command"		"engine replay_confirmquit"
		
		"defaultFgColor_override" "TanLight"
		"armedFgColor_override" "MenuMouseover"
		"depressedFgColor_override" "MenuMouseover"	

		"border_default"	""
		"border_armed"		"MenuButtonBorder"		
		
		"sound_depressed"	"UI/buttonclick.wav"
		"sound_released"	"UI/buttonclickrelease.wav"
		
		"image_drawcolor"	"TanLight"
		"image_armedcolor"	"MenuMouseover"
		"SubImage"
		{
			"ControlName"	"ImagePanel"
			"fieldName"		"SubImage"
			"xpos"			"16"
			"ypos"			"6"
			"zpos"			"1"
			"wide"			"0"
			"tall"			"0"
			"visible"		"1"
			"enabled"		"1"
			"scaleImage"	"1"
			"image"			"glyph_quit"
		}				
	}

	"DemoUIButton"
	{
		"ControlName"	"CExImageButton"
		"fieldName"		"DemoUIButton"
		"xpos"			"-25"
		"ypos"			"452"
		"zpos"			"1"
		"wide"			"100"
		"tall"			"16"
		"autoResize"	"0"
		"pinCorner"		"3"
		"visible"		"1"
		"enabled"		"1"
		"tabPosition"	"0"
		"labelText"		"DemoUI"
		"font"			"BigNoodleTitling24"
		"textAlignment"	"west"
		"textinsetx"	"35"
		"use_proportional_insets" "1"
		"dulltext"		"0"
		"brighttext"	"0"
		"default"		"1"
		"paintbackground""0"
		"Command"		"engine demoui"
		
		"defaultFgColor_override" "TanLight"
		"armedFgColor_override" "MenuMouseover"
		"depressedFgColor_override" "MenuMouseover"		
		
		"sound_depressed"	"UI/buttonclick.wav"
		"sound_released"	"UI/buttonclickrelease.wav"
		
		"image_drawcolor"	"TanLight"
		"image_armedcolor"	"MenuMouseover"
		"SubImage"
		{
			"ControlName"	"ImagePanel"
			"fieldName"		"SubImage"
			"xpos"			"16"
			"ypos"			"6"
			"zpos"			"1"
			"wide"			"0"
			"tall"			"0"
			"visible"		"1"
			"enabled"		"1"
			"scaleImage"	"1"
			"image"			"glyph_quit"
		}				
	}

	"ConsoleButton"
	{
		"ControlName"	"CExImageButton"
		"fieldName"		"ConsoleButton"
		"xpos"			"98"
		"ypos"			"450"
		"zpos"			"1"
		"wide"			"100"
		"tall"			"16"
		"autoResize"	"0"
		"pinCorner"		"3"
		"visible"		"1"
		"enabled"		"1"
		"tabPosition"	"0"
		"labelText"		"Console"
		"font"			"BigNoodleTitling24"
		"textAlignment"	"west"
		"textinsetx"	"35"
		"use_proportional_insets" "1"
		"dulltext"		"0"
		"brighttext"	"0"
		"default"		"1"
		"paintbackground""0"
		"Command"		"engine toggleconsole"
		
		"defaultFgColor_override" "TanLight"
		"armedFgColor_override" "MenuMouseover"
		"depressedFgColor_override" "MenuMouseover"		
		
		"sound_depressed"	"UI/buttonclick.wav"
		"sound_released"	"UI/buttonclickrelease.wav"
		
		"image_drawcolor"	"TanLight"
		"image_armedcolor"	"MenuMouseover"
		"SubImage"
		{
			"ControlName"	"ImagePanel"
			"fieldName"		"SubImage"
			"xpos"			"16"
			"ypos"			"6"
			"zpos"			"1"
			"wide"			"0"
			"tall"			"0"
			"visible"		"1"
			"enabled"		"1"
			"scaleImage"	"1"
			"image"			"glyph_quit"
		}				
	}		
	
	"DisconnectButton"
	{
		"ControlName"	"CExImageButton"
		"fieldName"		"DisconnectButton"
		"xpos"			"-15"
		"ypos"			"416"
		"zpos"			"1"
		"wide"			"150"
		"tall"			"16"
		"autoResize"	"0"
		"pinCorner"		"3"
		"visible"		"1"
		"enabled"		"1"
		"tabPosition"	"0"
		"labelText"		"Disconnect"
		"font"			"BigNoodleTitling16"
		"textAlignment"	"west"
		"textinsetx"	"35"
		"use_proportional_insets" "1"
		"dulltext"		"0"
		"brighttext"	"0"
		"default"		"1"
		"Command"		"engine disconnect"
		
		"defaultFgColor_override" "TanLight"
		"armedFgColor_override" "MenuMouseover"
		"depressedFgColor_override" "MenuMouseover"
		
		"border_default"	""
		"border_armed"		"MenuButtonBorder"
		"paintbackground"	"0"
		
		"sound_depressed"	"UI/buttonclick.wav"
		"sound_released"	"UI/buttonclickrelease.wav"
		
		"image_drawcolor"	"235 226 202 255"
		"SubImage"
		{
			"ControlName"	"ImagePanel"
			"fieldName"		"SubImage"
			"xpos"			"16"
			"ypos"			"6"
			"zpos"			"1"
			"wide"			"0"
			"tall"			"0"
			"visible"		"1"
			"enabled"		"1"
			"scaleImage"	"1"
			
			"image"			"glyph_quit"
		}				
	}			
	
	"BackToReplaysButton"
	{
		"ControlName"	"CExImageButton"
		"fieldName"		"BackToReplaysButton"
		"xpos"			"c-225"
		"ypos"			"437"
		"zpos"			"1"
		"wide"			"170"
		"tall"			"25"
		"autoResize"	"0"
		"pinCorner"		"3"
		"visible"		"0"
		"enabled"		"1"
		"tabPosition"	"0"
		"labelText"		"#GameUI_GameMenu_ExitReplay"
		"font"			"HudFontSmallBold"
		"textAlignment"	"west"
		"textinsetx"	"35"
		"use_proportional_insets" "1"
		"dulltext"		"0"
		"brighttext"	"0"
		"default"		"1"
		"Command"		"exitreplayeditor"
			
		
		"sound_depressed"	"UI/buttonclick.wav"
		"sound_released"	"UI/buttonclickrelease.wav"
		
		"image_drawcolor"	"TanLight"
		"image_armedcolor"	"MenuMouseover"
		"SubImage"
		{
			"ControlName"	"ImagePanel"
			"fieldName"		"SubImage"
			"xpos"			"16"
			"ypos"			"6"
			"zpos"			"1"
			"wide"			"14"
			"tall"			"14"
			"visible"		"1"
			"enabled"		"1"
			"scaleImage"	"1"
			"image"			"glyph_quit"
		}				
	}			
	
	"TutorialHighlight"
	{
		"ControlName"	"CExplanationPopup"
		"fieldName"		"TutorialHighlight"
		"xpos"			"c-210"
		"ypos"			"195"
		"zpos"			"100"
		"wide"			"250"
		"tall"			"120"
		"visible"		"0"
		"PaintBackgroundType"	"2"
		"paintbackground" "0"
		"border"		"MainMenuHighlightBorder"
		
		"start_x"		"c-85"
		"start_y"		"185"
		"start_wide"	"1"
		"start_tall"	"1"
		"end_x"			"c20"
		"end_y"			"120"
		"end_wide"		"250"
		"end_tall"		"120"
		"callout_inparents_x"	"c-40"
		"callout_inparents_y"	"195"
		
		"TitleLabel"
		{
			"ControlName"	"CExLabel"
			"fieldName"		"TitleLabel"
			"font"			"HudFontSmallBold"
			"labelText"		"%highlighttext%"
			"textAlignment"	"center"
			"xpos"			"20"
			"ypos"			"10"
			"wide"			"210"
			"tall"			"60"
			"autoResize"	"0"
			"pinCorner"		"0"
			"visible"		"1"
			"enabled"		"1"
			"wrap"			"1"
			"fgcolor_override" "46 43 42 255"
		}
		
		"TextLabel"
		{
			"ControlName"	"CExLabel"
			"fieldName"		"TextLabel"
			"font"			"HudFontSmall"
			"labelText"		"#MMenu_TutorialHighlight_Text"
			"textAlignment"	"south-west"
			"xpos"			"-55"
			"ypos"			"60"
			"wide"			"210"
			"tall"			"20"
			"autoResize"	"0"
			"pinCorner"		"0"
			"visible"		"1"
			"enabled"		"1"
			"fgcolor_override" "46 43 42 255"
		}
		
		"TutorialHighlightButton"
		{
			"ControlName"	"EditablePanel"
			"fieldname"		"TutorialHighlightButton"
			"xpos"			"10"
			"ypos"			"85"
			"wide"			"230"
			"tall"			"26"
			"visible"		"1"
			
			"SubButton"
			{
				"ControlName"	"CExImageButton"
				"fieldName"		"SubButton"
				"xpos"			"0"
				"ypos"			"0"
				"wide"			"230"
				"tall"			"26"
				"autoResize"	"0"
				"pinCorner"		"3"
				"visible"		"1"
				"enabled"		"1"
				"tabPosition"	"0"
				"labeltext"		"#MMenu_TutorialHighlight_Button"
				"font"			"HudFontSmallBold"
				"textAlignment"	"center"
				"dulltext"		"0"
				"brighttext"	"0"
				"default"		"1"
				"sound_depressed"	"UI/buttonclick.wav"
				"sound_released"	"UI/buttonclickrelease.wav"
				"Command"		"tutorial"
				
				"border_default"	"MainMenuButtonDefault"
				"border_armed"		"MainMenuButtonArmed"
				"paintbackground"	"0"
				
				"defaultFgColor_override" "46 43 42 255"
				"armedFgColor_override" "235 226 202 255"
				"depressedFgColor_override" "46 43 42 255"
				
				"image_drawcolor"	"117 107 94 255"
				"image_armedcolor"	"235 226 202 255"
				"SubImage"
				{
					"ControlName"	"ImagePanel"
					"fieldName"		"SubImage"
					"xpos"			"6"
					"ypos"			"6"
					"zpos"			"1"
					"wide"			"14"
					"tall"			"14"
					"visible"		"1"
					"enabled"		"1"
					"scaleImage"	"1"
				}				
			}		
		}
		
		"CloseButton"
		{
			"ControlName"	"CExImageButton"
			"fieldName"		"CloseButton"
			"xpos"			"155"
			"ypos"			"5"
			"zpos"			"10"
			"wide"			"14"
			"tall"			"14"
			"autoResize"	"0"
			"pinCorner"		"0"
			"visible"		"1"
			"enabled"		"1"
			"tabPosition"	"0"
			"labeltext"		""
			"font"			"HudFontSmallBold"
			"textAlignment"	"center"
			"dulltext"		"0"
			"brighttext"	"0"
			"default"		"1"
			"sound_depressed"	"UI/buttonclick.wav"
			"sound_released"	"UI/buttonclickrelease.wav"
			"Command"		"close"
			
			"paintbackground"	"0"
			
			"defaultFgColor_override" "46 43 42 255"
			"armedFgColor_override" "235 226 202 255"
			"depressedFgColor_override" "46 43 42 255"
			
			"image_drawcolor"	"TanLight"
			"image_armedcolor"	"MenuMouseover"
			"SubImage"
			{
				"ControlName"	"ImagePanel"
				"fieldName"		"SubImage"
				"xpos"			"0"
				"ypos"			"0"
				"zpos"			"1"
				"wide"			"14"
				"tall"			"14"
				"visible"		"1"
				"enabled"		"1"
				"image"			"close_button"
				"scaleImage"	"1"
			}				
		}		
	}	
	
	"PracticeHighlight"
	{
		"ControlName"	"CExplanationPopup"
		"fieldName"		"PracticeHighlight"
		"zpos"			"25"
		"wide"			"250"
		"tall"			"120"
		"visible"		"0"
		"PaintBackgroundType"	"2"
		"paintbackground" "0"
		"border"		"MainMenuHighlightBorder"
		
		"start_x"		"c-85"
		"start_y"		"185"
		"start_wide"	"1"
		"start_tall"	"1"
		"end_x"			"c20"
		"end_y"			"120"
		"end_wide"		"250"
		"end_tall"		"120"
		"callout_inparents_x"	"c-40"
		"callout_inparents_y"	"195"
		
		"TitleLabel"
		{
			"ControlName"	"CExLabel"
			"fieldName"		"TitleLabel"
			"font"			"HudFontSmallBold"
			"labelText"		"#MMenu_PracticeHighlight_Title"
			"textAlignment"	"center"
			"xpos"			"20"
			"ypos"			"10"
			"wide"			"210"
			"tall"			"50"
			"autoResize"	"0"
			"pinCorner"		"0"
			"visible"		"1"
			"enabled"		"1"
			"wrap"			"1"
			"fgcolor_override" "46 43 42 255"
		}
		
		"TextLabel"
		{
			"ControlName"	"CExLabel"
			"fieldName"		"TextLabel"
			"font"			"HudFontSmall"
			"labelText"		"#MMenu_PracticeHighlight_Text"
			"textAlignment"	"south-west"
			"xpos"			"20"
			"ypos"			"50"
			"wide"			"210"
			"tall"			"30"
			"autoResize"	"0"
			"pinCorner"		"0"
			"visible"		"1"
			"enabled"		"1"
			"fgcolor_override" "46 43 42 255"
		}
		
		"PracticeHighlightButton"
		{
			"ControlName"	"EditablePanel"
			"fieldname"		"PracticeHighlightButton"
			"xpos"			"10"
			"ypos"			"85"
			"wide"			"230"
			"tall"			"26"
			"visible"		"1"
			
			"SubButton"
			{
				"ControlName"	"CExImageButton"
				"fieldName"		"SubButton"
				"xpos"			"0"
				"ypos"			"0"
				"wide"			"230"
				"tall"			"26"
				"autoResize"	"0"
				"pinCorner"		"3"
				"visible"		"1"
				"enabled"		"1"
				"tabPosition"	"0"
				"labeltext"		"#MMenu_PracticeHighlight_Button"
				"font"			"HudFontSmallBold"
				"textAlignment"	"center"
				"dulltext"		"0"
				"brighttext"	"0"
				"default"		"1"
				"sound_depressed"	"UI/buttonclick.wav"
				"sound_released"	"UI/buttonclickrelease.wav"
				"Command"		"offlinepractice"
				
				"border_default"	"MainMenuButtonDefault"
				"border_armed"		"MainMenuButtonArmed"
				"paintbackground"	"0"
				
				"defaultFgColor_override" "46 43 42 255"
				"armedFgColor_override" "235 226 202 255"
				"depressedFgColor_override" "46 43 42 255"
				
				"image_drawcolor"	"117 107 94 255"
				"image_armedcolor"	"235 226 202 255"
				"SubImage"
				{
					"ControlName"	"ImagePanel"
					"fieldName"		"SubImage"
					"xpos"			"6"
					"ypos"			"6"
					"zpos"			"1"
					"wide"			"14"
					"tall"			"14"
					"visible"		"1"
					"enabled"		"1"
					"scaleImage"	"1"
				}				
			}		
		}
		
		"CloseButton"
		{
			"ControlName"	"CExImageButton"
			"fieldName"		"CloseButton"
			"xpos"			"155"
			"ypos"			"5"
			"zpos"			"10"
			"wide"			"14"
			"tall"			"14"
			"autoResize"	"0"
			"pinCorner"		"0"
			"visible"		"1"
			"enabled"		"1"
			"tabPosition"	"0"
			"labeltext"		""
			"font"			"HudFontSmallBold"
			"textAlignment"	"center"
			"dulltext"		"0"
			"brighttext"	"0"
			"default"		"1"
			"sound_depressed"	"UI/buttonclick.wav"
			"sound_released"	"UI/buttonclickrelease.wav"
			"Command"		"close"
			
			"paintbackground"	"0"
			
			"defaultFgColor_override" "46 43 42 255"
			"armedFgColor_override" "235 226 202 255"
			"depressedFgColor_override" "46 43 42 255"
			
			"image_drawcolor"	"TanLight"
			"image_armedcolor"	"MenuMouseover"
			"SubImage"
			{
				"ControlName"	"ImagePanel"
				"fieldName"		"SubImage"
				"xpos"			"0"
				"ypos"			"0"
				"zpos"			"1"
				"wide"			"14"
				"tall"			"14"
				"visible"		"1"
				"enabled"		"1"
				"image"			"close_button"
				"scaleImage"	"1"
			}				
		}		
	}	
	
	"NewUserForumHighlight"
	{
		"ControlName"	"CExplanationPopup"
		"fieldName"		"NewUserForumHighlight"
		"xpos"			"c-130"
		"ypos"			"280"
		"zpos"			"100"
		"wide"			"250"
		"tall"			"120"
		"visible"		"0"
		"PaintBackgroundType"	"2"
		"paintbackground" "0"
		"border"		"MainMenuHighlightBorder"
		
		"start_x"		"c-112"
		"start_y"		"437"
		"start_wide"	"1"
		"start_tall"	"1"
		"end_x"			"c-205"
		"end_y"			"280"
		"end_wide"		"250"
		"end_tall"		"120"
		"callout_inparents_x"	"c-116"
		"callout_inparents_y"	"437"
		
		"TitleLabel"
		{
			"ControlName"	"CExLabel"
			"fieldName"		"TitleLabel"
			"font"			"HudFontSmallBold"
			"labelText"		"#MMenu_NewUserForumHighlight_Title"
			"textAlignment"	"north-west"
			"xpos"			"10"
			"ypos"			"10"
			"wide"			"210"
			"tall"			"20"
			"autoResize"	"0"
			"pinCorner"		"0"
			"visible"		"1"
			"enabled"		"1"
			"wrap"			"1"
			"fgcolor_override" "46 43 42 255"
		}
		
		"TextLabel"
		{
			"ControlName"	"CExLabel"
			"fieldName"		"TextLabel"
			"font"			"HudFontSmall"
			"labelText"		"#MMenu_NewUserForumHighlight_Text"
			"textAlignment"	"north-west"
			"xpos"			"20"
			"ypos"			"30"
			"wide"			"210"
			"tall"			"90"
			"autoResize"	"0"
			"pinCorner"		"0"
			"visible"		"1"
			"enabled"		"1"
			"wrap"			"1"
			"fgcolor_override" "46 43 42 255"
		}
		
		"CloseButton"
		{
			"ControlName"	"CExImageButton"
			"fieldName"		"CloseButton"
			"xpos"			"165"
			"ypos"			"5"
			"zpos"			"10"
			"wide"			"14"
			"tall"			"14"
			"autoResize"	"0"
			"pinCorner"		"0"
			"visible"		"1"
			"enabled"		"1"
			"tabPosition"	"0"
			"labeltext"		""
			"font"			"HudFontSmallBold"
			"textAlignment"	"center"
			"dulltext"		"0"
			"brighttext"	"0"
			"default"		"1"
			"sound_depressed"	"UI/buttonclick.wav"
			"sound_released"	"UI/buttonclickrelease.wav"
			"Command"		"close"
			
			"paintbackground"	"0"
			
			"defaultFgColor_override" "46 43 42 255"
			"armedFgColor_override" "235 226 202 255"
			"depressedFgColor_override" "46 43 42 255"
			
			"image_drawcolor"	"TanLight"
			"image_armedcolor"	"MenuMouseover"
			"SubImage"
			{
				"ControlName"	"ImagePanel"
				"fieldName"		"SubImage"
				"xpos"			"0"
				"ypos"			"0"
				"zpos"			"1"
				"wide"			"14"
				"tall"			"14"
				"visible"		"1"
				"enabled"		"1"
				"image"			"close_button"
				"scaleImage"	"1"
			}				
		}		
	}	
	
	"OptionsHighlightPanel"
	{
		"ControlName"	"CExplanationPopup"
		"fieldName"		"OptionsHighlightPanel"
		"xpos"			"c-135"
		"ypos"			"280"
		"zpos"			"100"
		"wide"			"250"
		"tall"			"120"
		"visible"		"0"
		"PaintBackgroundType"	"2"
		"paintbackground" "0"
		"border"		"MainMenuHighlightBorder"
		
		"start_x"		"c238"
		"start_y"		"437"
		"start_wide"	"1"
		"start_tall"	"1"
		"end_x"			"c55"
		"end_y"			"280"
		"end_wide"		"250"
		"end_tall"		"120"
		"callout_inparents_x"	"c240"
		"callout_inparents_y"	"437"
		
		"TitleLabel"
		{
			"ControlName"	"CExLabel"
			"fieldName"		"TitleLabel"
			"font"			"HudFontSmallBold"
			"labelText"		"#MMenu_OptionsHighlightPanel_Title"
			"textAlignment"	"north-west"
			"xpos"			"10"
			"ypos"			"10"
			"wide"			"210"
			"tall"			"20"
			"autoResize"	"0"
			"pinCorner"		"0"
			"visible"		"1"
			"enabled"		"1"
			"wrap"			"1"
			"fgcolor_override" "46 43 42 255"
		}
		
		"TextLabel"
		{
			"ControlName"	"CExLabel"
			"fieldName"		"TextLabel"
			"font"			"HudFontSmall"
			"labelText"		"#MMenu_OptionsHighlightPanel_Text"
			"textAlignment"	"north-west"
			"xpos"			"20"
			"ypos"			"30"
			"wide"			"210"
			"tall"			"90"
			"autoResize"	"0"
			"pinCorner"		"0"
			"visible"		"1"
			"enabled"		"1"
			"wrap"			"1"
			"fgcolor_override" "46 43 42 255"
		}
		
		"CloseButton"
		{
			"ControlName"	"CExImageButton"
			"fieldName"		"CloseButton"
			"xpos"			"165"
			"ypos"			"5"
			"zpos"			"10"
			"wide"			"14"
			"tall"			"14"
			"autoResize"	"0"
			"pinCorner"		"0"
			"visible"		"1"
			"enabled"		"1"
			"tabPosition"	"0"
			"labeltext"		""
			"font"			"HudFontSmallBold"
			"textAlignment"	"center"
			"dulltext"		"0"
			"brighttext"	"0"
			"default"		"1"
			"sound_depressed"	"UI/buttonclick.wav"
			"sound_released"	"UI/buttonclickrelease.wav"
			"Command"		"close"
			
			"paintbackground"	"0"
			
			"defaultFgColor_override" "46 43 42 255"
			"armedFgColor_override" "235 226 202 255"
			"depressedFgColor_override" "46 43 42 255"
			
			"image_drawcolor"	"TanLight"
			"image_armedcolor"	"MenuMouseover"
			"SubImage"
			{
				"ControlName"	"ImagePanel"
				"fieldName"		"SubImage"
				"xpos"			"0"
				"ypos"			"0"
				"zpos"			"1"
				"wide"			"14"
				"tall"			"14"
				"visible"		"1"
				"enabled"		"1"
				"image"			"close_button"
				"scaleImage"	"1"
			}				
		}		
	}
	
	"LoadoutHighlightPanel"
	{
		"ControlName"	"CExplanationPopup"
		"fieldName"		"LoadoutHighlightPanel"
		"xpos"			"c-135"
		"ypos"			"280"
		"zpos"			"100"
		"wide"			"250"
		"tall"			"120"
		"visible"		"0"
		"PaintBackgroundType"	"2"
		"paintbackground" "0"
		"border"		"MainMenuHighlightBorder"
		
		"start_x"		"c-190"
		"start_y"		"267"
		"start_wide"	"1"
		"start_tall"	"1"
		"end_x"			"c-125"
		"end_y"			"180"
		"end_wide"		"250"
		"end_tall"		"220"
		"callout_inparents_x"	"c-163"
		"callout_inparents_y"	"267"
		
		"TitleLabel"
		{
			"ControlName"	"CExLabel"
			"fieldName"		"TitleLabel"
			"font"			"HudFontSmallBold"
			"labelText"		"#MMenu_LoadoutHighlightPanel_Title"
			"textAlignment"	"north-west"
			"xpos"			"10"
			"ypos"			"10"
			"wide"			"210"
			"tall"			"20"
			"autoResize"	"0"
			"pinCorner"		"0"
			"visible"		"1"
			"enabled"		"1"
			"wrap"			"1"
			"fgcolor_override" "46 43 42 255"
		}
		
		"TextLabel"
		{
			"ControlName"	"CExLabel"
			"fieldName"		"TextLabel"
			"font"			"HudFontSmall"
			"labelText"		"#MMenu_LoadoutHighlightPanel_Text"
			"textAlignment"	"north-west"
			"xpos"			"20"
			"ypos"			"30"
			"wide"			"210"
			"tall"			"190"
			"autoResize"	"0"
			"pinCorner"		"0"
			"visible"		"1"
			"enabled"		"1"
			"wrap"			"1"
			"fgcolor_override" "46 43 42 255"
		}
		
		"CloseButton"
		{
			"ControlName"	"CExImageButton"
			"fieldName"		"CloseButton"
			"xpos"			"230"
			"ypos"			"5"
			"zpos"			"10"
			"wide"			"14"
			"tall"			"14"
			"autoResize"	"0"
			"pinCorner"		"0"
			"visible"		"1"
			"enabled"		"1"
			"tabPosition"	"0"
			"labeltext"		""
			"font"			"HudFontSmallBold"
			"textAlignment"	"center"
			"dulltext"		"0"
			"brighttext"	"0"
			"default"		"1"
			"sound_depressed"	"UI/buttonclick.wav"
			"sound_released"	"UI/buttonclickrelease.wav"
			"Command"		"close"
			
			"paintbackground"	"0"
			
			"defaultFgColor_override" "46 43 42 255"
			"armedFgColor_override" "235 226 202 255"
			"depressedFgColor_override" "46 43 42 255"
			
			"image_drawcolor"	"TanLight"
			"image_armedcolor"	"MenuMouseover"
			"SubImage"
			{
				"ControlName"	"ImagePanel"
				"fieldName"		"SubImage"
				"xpos"			"0"
				"ypos"			"0"
				"zpos"			"1"
				"wide"			"14"
				"tall"			"14"
				"visible"		"1"
				"enabled"		"1"
				"image"			"close_button"
				"scaleImage"	"1"
			}				
		}		
	}

	"StoreHighlightPanel"
	{
		"ControlName"	"CExplanationPopup"
		"fieldName"		"StoreHighlightPanel"
		"xpos"			"c0"
		"ypos"			"300"
		"zpos"			"100"
		"wide"			"250"
		"tall"			"60"
		"visible"		"0"
		"PaintBackgroundType"	"2"
		"paintbackground" "0"
		"border"		"MainMenuHighlightBorder"
		
		"start_x"		"c20"
		"start_y"		"285"
		"start_wide"	"250"
		"start_tall"	"125"
		"end_x"			"c20"
		"end_y"			"285"
		"end_wide"		"250"
		"end_tall"		"125"
		"callout_inparents_x"	"c-40"
		"callout_inparents_y"	"267"
		
		"TitleLabel"
		{
			"ControlName"	"CExLabel"
			"fieldName"		"TitleLabel"
			"font"			"HudFontSmallBold"
			"labelText"		"#MMenu_StoreHighlightPanel_Title"
			"textAlignment"	"north-west"
			"xpos"			"10"
			"ypos"			"10"
			"wide"			"210"
			"tall"			"20"
			"autoResize"	"0"
			"pinCorner"		"0"
			"visible"		"1"
			"enabled"		"1"
			"wrap"			"1"
			"fgcolor_override" "46 43 42 255"
		}
		
		"TextLabel"
		{
			"ControlName"	"CExLabel"
			"fieldName"		"TextLabel"
			"font"			"HudFontSmall"
			"labelText"		"%highlighttext%"
			"textAlignment"	"north-west"
			"xpos"			"20"
			"ypos"			"30"
			"wide"			"210"
			"tall"			"190"
			"autoResize"	"0"
			"pinCorner"		"0"
			"visible"		"1"
			"enabled"		"1"
			"wrap"			"1"
			"fgcolor_override" "46 43 42 255"
		}
		
		"CloseButton"
		{
			"ControlName"	"CExImageButton"
			"fieldName"		"CloseButton"
			"xpos"			"230"
			"ypos"			"5"
			"zpos"			"10"
			"wide"			"14"
			"tall"			"14"
			"autoResize"	"0"
			"pinCorner"		"0"
			"visible"		"1"
			"enabled"		"1"
			"tabPosition"	"0"
			"labeltext"		""
			"font"			"HudFontSmallBold"
			"textAlignment"	"center"
			"dulltext"		"0"
			"brighttext"	"0"
			"default"		"1"
			"sound_depressed"	"UI/buttonclick.wav"
			"sound_released"	"UI/buttonclickrelease.wav"
			"Command"		"close"
			
			"paintbackground"	"0"
			
			"defaultFgColor_override" "46 43 42 255"
			"armedFgColor_override" "235 226 202 255"
			"depressedFgColor_override" "46 43 42 255"
			
			"image_drawcolor"	"TanLight"
			"image_armedcolor"	"MenuMouseover"
			"SubImage"
			{
				"ControlName"	"ImagePanel"
				"fieldName"		"SubImage"
				"xpos"			"0"
				"ypos"			"0"
				"zpos"			"1"
				"wide"			"14"
				"tall"			"14"
				"visible"		"1"
				"enabled"		"1"
				"image"			"close_button"
				"scaleImage"	"1"
			}				
		}		
	}
}
